id,label
1,0
2,1
3,0
4,1
5,0
6,1
7,1
8,0
9,0
10,0
11,0
12,1
13,1
14,0
15,1
16,0
17,1
18,1
19,1
20,0
21,1
22,0
23,0
24,0
25,1
26,1
27,0
28,0
29,1
30,1
31,1
32,0
33,1
34,0
35,0
36,0
37,1
38,0
39,1
40,0
41,1
42,1
43,1
44,1
45,1
46,1
47,1
48,0
49,0
50,0
51,1
52,0
53,0
54,1
55,1
56,1
57,1
58,0
59,1
60,1
61,0
62,0
63,1
64,1
65,1
66,1
67,1
68,1
69,0
70,0
71,1
72,1
73,1
74,1
75,0
76,0
77,1
78,1
79,0
80,1
81,1
82,0
83,1
84,0
85,1
86,1
87,1
88,1
89,0
90,1
91,1
92,1
93,1
94,1
95,1
96,0
97,0
98,0
99,1
100,0
101,0
102,1
103,0
104,0
105,0
106,0
107,0
108,1
109,0
110,1
111,1
112,0
113,1
114,1
115,1
116,0
117,0
118,1
119,0
120,0
121,1
122,1
123,0
124,0
125,1
126,0
127,1
128,1
129,1
130,1
131,1
132,1
133,0
134,1
135,1
136,0
137,0
138,0
139,1
140,0
141,0
142,0
143,1
144,0
145,0
146,1
147,1
148,0
149,0
150,0
151,1
152,0
153,0
154,0
155,1
156,1
157,1
158,1
159,1
160,1
161,1
162,0
163,1
164,1
165,1
166,1
167,1
168,0
169,1
170,0
171,1
172,0
173,0
174,0
175,1
176,1
177,1
178,1
179,1
180,1
181,1
182,0
183,1
184,0
185,1
186,0
187,0
188,0
189,0
190,1
191,0
192,0
193,0
194,1
195,1
196,1
197,1
198,0
199,1
200,0
201,1
202,1
203,1
204,1
205,0
206,1
207,1
208,1
209,0
210,0
211,0
212,1
213,1
214,0
215,1
216,1
217,1
218,1
219,1
220,1
221,0
222,1
223,1
224,0
225,0
226,1
227,1
228,1
229,1
230,0
231,1
232,0
233,1
234,0
235,1
236,1
237,0
238,0
239,0
240,1
241,1
242,0
243,0
244,1
245,0
246,0
247,1
248,0
249,0
250,1
251,1
252,0
253,1
254,0
255,1
256,0
257,1
258,0
259,0
260,0
261,0
262,1
263,1
264,0
265,1
266,0
267,0
268,1
269,1
270,1
271,1
272,0
273,1
274,0
275,1
276,1
277,1
278,0
279,1
280,1
281,1
282,1
283,0
284,1
285,0
286,1
287,1
288,1
289,1
290,0
291,0
292,0
293,0
294,1
295,0
296,0
297,1
298,0
299,1
300,1
301,1
302,1
303,0
304,0
305,1
306,1
307,1
308,0
309,0
310,1
311,1
312,0
313,0
314,1
315,0
316,1
317,0
318,0
319,1
320,1
321,0
322,1
323,0
324,0
325,0
326,1
327,1
328,1
329,1
330,0
331,0
332,1
333,0
334,0
335,0
336,1
337,1
338,0
339,1
340,1
341,1
342,0
343,1
344,1
345,1
346,1
347,0
348,1
349,1
350,1
351,0
352,0
353,0
354,0
355,1
356,0
357,0
358,0
359,0
360,1
361,1
362,0
363,1
364,0
365,1
366,1
367,1
368,0
369,0
370,1
371,1
372,0
373,0
374,1
375,1
376,1
377,1
378,1
379,0
380,0
381,1
382,1
383,1
384,1
385,0
386,0
387,1
388,1
389,0
390,0
391,1
392,0
393,1
394,1
395,1
396,0
397,0
398,0
399,1
400,1
401,1
402,1
403,1
404,0
405,0
406,0
407,1
408,1
409,0
410,0
411,0
412,0
413,1
414,0
415,1
416,0
417,1
418,1
419,0
420,1
421,1
422,0
423,1
424,1
425,1
426,0
427,0
428,1
429,0
430,0
431,0
432,1
433,1
434,1
435,0
436,1
437,1
438,1
439,0
440,0
441,0
442,1
443,1
444,0
445,1
446,1
447,1
448,0
449,1
450,0
451,0
452,0
453,0
454,0
455,1
456,1
457,0
458,1
459,0
460,1
461,1
462,1
463,1
464,1
465,0
466,1
467,1
468,1
469,1
470,1
471,0
472,1
473,1
474,1
475,1
476,0
477,0
478,1
479,0
480,0
481,0
482,1
483,1
484,1
485,1
486,1
487,1
488,1
489,0
490,1
491,1
492,1
493,0
494,0
495,1
496,0
497,1
498,1
499,1
500,0
501,1
502,0
503,1
504,0
505,0
506,1
507,1
508,1
509,0
510,1
511,0
512,0
513,0
514,1
515,1
516,1
517,1
518,0
519,1
520,0
521,0
522,1
523,1
524,0
525,0
526,1
527,0
528,1
529,1
530,0
531,1
532,0
533,0
534,0
535,0
536,0
537,1
538,0
539,0
540,0
541,0
542,1
543,0
544,0
545,1
546,0
547,0
548,0
549,1
550,0
551,1
552,0
553,1
554,0
555,1
556,0
557,1
558,1
559,1
560,0
561,0
562,0
563,1
564,1
565,1
566,1
567,1
568,0
569,0
570,0
571,0
572,0
573,0
574,1
575,1
576,0
577,1
578,1
579,1
580,0
581,0
582,1
583,1
584,1
585,1
586,1
587,1
588,0
589,0
590,1
591,1
592,0
593,1
594,0
595,0
596,0
597,0
598,0
599,0
600,0
601,1
602,0
603,0
604,0
605,0
606,1
607,1
608,0
609,1
610,1
611,0
612,0
613,0
614,0
615,0
616,1
617,0
618,1
619,0
620,1
621,0
622,1
623,0
624,0
625,0
626,1
627,0
628,1
629,1
630,1
631,1
632,1
633,1
634,1
635,0
636,1
637,0
638,1
639,0
640,1
641,0
642,1
643,0
644,1
645,0
646,1
647,0
648,1
649,1
650,1
651,1
652,1
653,0
654,0
655,1
656,1
657,1
658,0
659,0
660,0
661,1
662,0
663,0
664,0
665,1
666,1
667,1
668,0
669,1
670,1
671,0
672,1
673,1
674,0
675,0
676,0
677,1
678,0
679,1
680,1
681,1
682,1
683,1
684,1
685,1
686,1
687,0
688,1
689,1
690,1
691,0
692,1
693,1
694,0
695,1
696,1
697,0
698,1
699,1
700,1
701,1
702,0
703,0
704,0
705,0
706,1
707,0
708,1
709,1
710,0
711,0
712,0
713,1
714,0
715,1
716,1
717,1
718,1
719,1
720,0
721,0
722,0
723,1
724,0
725,1
726,0
727,1
728,1
729,0
730,1
731,1
732,0
733,0
734,0
735,1
736,1
737,0
738,1
739,1
740,0
741,1
742,0
743,1
744,0
745,1
746,1
747,1
748,0
749,0
750,0
751,1
752,1
753,1
754,1
755,0
756,1
757,0
758,0
759,0
760,0
761,0
762,0
763,0
764,1
765,1
766,1
767,1
768,1
769,1
770,0
771,1
772,1
773,0
774,0
775,1
776,1
777,0
778,1
779,1
780,0
781,0
782,0
783,1
784,1
785,1
786,1
787,0
788,0
789,0
790,1
791,1
792,1
793,1
794,1
795,0
796,1
797,0
798,1
799,1
800,1
801,0
802,1
803,0
804,0
805,1
806,1
807,1
808,0
809,1
810,0
811,1
812,1
813,0
814,1
815,1
816,1
817,1
818,1
819,1
820,0
821,1
822,1
823,1
824,0
825,0
826,1
827,0
828,1
829,1
830,1
831,0
832,1
833,1
834,0
835,1
836,1
837,0
838,1
839,1
840,0
841,0
842,1
843,1
844,0
845,1
846,0
847,1
848,1
849,1
850,1
851,0
852,0
853,0
854,0
855,0
856,0
857,0
858,0
859,0
860,1
861,1
862,1
863,0
864,1
865,1
866,0
867,0
868,0
869,1
870,1
871,1
872,1
873,0
874,0
875,1
876,1
877,0
878,1
879,1
880,1
881,1
882,1
883,1
884,1
885,0
886,0
887,0
888,1
889,0
890,1
891,1
892,0
893,1
894,0
895,0
896,0
897,1
898,0
899,1
900,1
901,0
902,1
903,1
904,1
905,1
906,0
907,1
908,0
909,0
910,0
911,1
912,1
913,1
914,0
915,1
916,0
917,1
918,0
919,1
920,0
921,1
922,0
923,1
924,1
925,0
926,0
927,1
928,1
929,0
930,1
931,1
932,0
933,0
934,1
935,1
936,0
937,1
938,0
939,1
940,1
941,0
942,0
943,0
944,1
945,1
946,0
947,1
948,1
949,1
950,0
951,0
952,0
953,0
954,0
955,1
956,0
957,0
958,1
959,0
960,0
961,0
962,0
963,0
964,0
965,0
966,1
967,1
968,0
969,1
970,1
971,0
972,0
973,0
974,0
975,1
976,1
977,0
978,0
979,1
980,1
981,1
982,1
983,1
984,1
985,0
986,1
987,0
988,0
989,0
990,0
991,0
992,1
993,0
994,0
995,0
996,0
997,1
998,1
999,0
1000,1
1001,1
1002,1
1003,1
1004,1
1005,1
1006,1
1007,1
1008,0
1009,0
1010,1
1011,1
1012,1
1013,1
1014,1
1015,1
1016,1
1017,0
1018,1
1019,1
1020,0
1021,0
1022,1
1023,0
1024,1
1025,1
1026,0
1027,0
1028,0
1029,1
1030,1
1031,0
1032,0
1033,0
1034,1
1035,0
1036,0
1037,1
1038,1
1039,0
1040,1
1041,1
1042,0
1043,0
1044,0
1045,1
1046,1
1047,1
1048,1
1049,0
1050,0
1051,1
1052,1
1053,0
1054,1
1055,1
1056,1
1057,0
1058,0
1059,0
1060,0
1061,0
1062,1
1063,1
1064,1
1065,0
1066,1
1067,1
1068,1
1069,0
1070,1
1071,0
1072,0
1073,0
1074,1
1075,1
1076,0
1077,0
1078,0
1079,1
1080,1
1081,1
1082,1
1083,1
1084,0
1085,1
1086,1
1087,1
1088,0
1089,1
1090,0
1091,1
1092,0
1093,1
1094,0
1095,1
1096,0
1097,0
1098,0
1099,0
1100,1
1101,0
1102,0
1103,0
1104,0
1105,1
1106,0
1107,0
1108,0
1109,1
1110,0
1111,0
1112,0
1113,1
1114,1
1115,1
1116,1
1117,0
1118,0
1119,1
1120,0
1121,1
1122,1
1123,0
1124,0
1125,0
1126,0
1127,0
1128,1
1129,0
1130,0
1131,1
1132,0
1133,0
1134,1
1135,1
1136,1
1137,1
1138,0
1139,1
1140,1
1141,1
1142,0
1143,1
1144,1
1145,1
1146,1
1147,1
1148,0
1149,1
1150,0
1151,1
1152,0
1153,0
1154,1
1155,1
1156,1
1157,1
1158,1
1159,0
1160,0
1161,0
1162,0
1163,0
1164,0
1165,0
1166,0
1167,1
1168,0
1169,1
1170,1
1171,1
1172,1
1173,1
1174,1
1175,1
1176,0
1177,0
1178,1
1179,1
1180,1
1181,0
1182,1
1183,0
1184,1
1185,1
1186,1
1187,0
1188,0
1189,0
1190,1
1191,1
1192,0
1193,0
1194,0
1195,0
1196,1
1197,0
1198,0
1199,1
1200,1
1201,0
1202,0
1203,0
1204,0
1205,1
1206,1
1207,1
1208,1
1209,0
1210,0
1211,1
1212,1
1213,1
1214,0
1215,0
1216,1
1217,1
1218,1
1219,0
1220,0
1221,0
1222,1
1223,0
1224,1
1225,0
1226,1
1227,1
1228,0
1229,1
1230,0
1231,1
1232,1
1233,1
1234,1
1235,1
1236,1
1237,1
1238,0
1239,1
1240,0
1241,0
1242,1
1243,0
1244,0
1245,1
1246,0
1247,1
1248,1
1249,0
1250,1
1251,1
1252,0
1253,1
1254,0
1255,0
1256,0
1257,1
1258,1
1259,0
1260,0
1261,1
1262,1
1263,0
1264,1
1265,1
1266,0
1267,1
1268,0
1269,0
1270,0
1271,1
1272,1
1273,1
1274,0
1275,0
1276,0
1277,1
1278,1
1279,1
1280,0
1281,1
1282,1
1283,1
1284,0
1285,1
1286,0
1287,0
1288,1
1289,1
1290,0
1291,0
1292,0
1293,1
1294,1
1295,0
1296,0
1297,1
1298,0
1299,0
1300,1
1301,1
1302,0
1303,0
1304,0
1305,0
1306,1
1307,1
1308,0
1309,0
1310,0
1311,0
1312,1
1313,0
1314,0
1315,1
1316,0
1317,1
1318,1
1319,1
1320,0
1321,0
1322,0
1323,1
1324,1
1325,1
1326,0
1327,1
1328,1
1329,1
1330,1
1331,0
1332,0
1333,1
1334,0
1335,0
1336,0
1337,0
1338,0
1339,0
1340,1
1341,1
1342,1
1343,0
1344,0
1345,1
1346,0
1347,1
1348,1
1349,1
1350,0
1351,1
1352,1
1353,1
1354,0
1355,0
1356,0
1357,1
1358,0
1359,0
1360,1
1361,0
1362,1
1363,0
1364,0
1365,1
1366,1
1367,1
1368,1
1369,1
1370,1
1371,1
1372,1
1373,1
1374,0
1375,1
1376,1
1377,1
1378,0
1379,1
1380,0
1381,1
1382,1
1383,0
1384,1
1385,1
1386,1
1387,0
1388,0
1389,1
1390,1
1391,1
1392,0
1393,1
1394,0
1395,0
1396,0
1397,1
1398,0
1399,1
1400,1
1401,0
1402,0
1403,0
1404,0
1405,1
1406,1
1407,1
1408,1
1409,1
1410,1
1411,1
1412,0
1413,0
1414,1
1415,0
1416,1
1417,1
1418,1
1419,0
1420,0
1421,1
1422,1
1423,0
1424,1
1425,0
1426,0
1427,1
1428,1
1429,1
1430,0
1431,1
1432,1
1433,1
1434,1
1435,1
1436,1
1437,1
1438,1
1439,1
1440,1
1441,0
1442,1
1443,1
1444,1
1445,1
1446,1
1447,0
1448,0
1449,0
1450,0
1451,0
1452,0
1453,0
1454,0
1455,0
1456,0
1457,0
1458,0
1459,0
1460,0
1461,0
1462,1
1463,0
1464,0
1465,0
1466,1
1467,1
1468,1
1469,1
1470,1
1471,0
1472,0
1473,0
1474,0
1475,0
1476,1
1477,1
1478,0
1479,0
1480,0
1481,1
1482,1
1483,0
1484,0
1485,1
1486,0
1487,0
1488,0
1489,0
1490,0
1491,1
1492,0
1493,0
1494,1
1495,0
1496,1
1497,1
1498,1
1499,0
1500,0
1501,0
1502,0
1503,1
1504,1
1505,0
1506,1
1507,0
1508,1
1509,1
1510,0
1511,1
1512,1
1513,0
1514,0
1515,0
1516,1
1517,1
1518,0
1519,1
1520,1
1521,1
1522,1
1523,0
1524,0
1525,1
1526,1
1527,1
1528,0
1529,1
1530,1
1531,0
1532,1
1533,0
1534,0
1535,0
1536,1
1537,0
1538,1
1539,1
1540,0
1541,1
1542,1
1543,1
1544,1
1545,0
1546,0
1547,0
1548,1
1549,1
1550,1
1551,1
1552,0
1553,1
1554,1
1555,0
1556,0
1557,1
1558,1
1559,1
1560,0
1561,0
1562,0
1563,1
1564,1
1565,1
1566,0
1567,1
1568,1
1569,0
1570,1
1571,0
1572,0
1573,1
1574,1
1575,1
1576,1
1577,1
1578,0
1579,0
1580,1
1581,1
1582,0
1583,0
1584,0
1585,1
1586,1
1587,1
1588,0
1589,0
1590,1
1591,1
1592,0
1593,0
1594,1
1595,1
1596,1
1597,0
1598,1
1599,1
1600,1
1601,0
1602,0
1603,1
1604,0
1605,0
1606,0
1607,1
1608,0
1609,1
1610,0
1611,0
1612,0
1613,1
1614,0
1615,0
1616,0
1617,0
1618,0
1619,1
1620,1
1621,1
1622,1
1623,0
1624,1
1625,1
1626,0
1627,0
1628,1
1629,0
1630,0
1631,1
1632,1
1633,0
1634,0
1635,0
1636,0
1637,1
1638,1
1639,0
1640,1
1641,0
1642,1
1643,1
1644,1
1645,0
1646,1
1647,1
1648,0
1649,0
1650,0
1651,1
1652,1
1653,1
1654,1
1655,0
1656,0
1657,0
1658,0
1659,1
1660,1
1661,1
1662,1
1663,0
1664,0
1665,1
1666,0
1667,1
1668,0
1669,0
1670,0
1671,0
1672,1
1673,1
1674,0
1675,1
1676,1
1677,1
1678,1
1679,0
1680,1
1681,1
1682,0
1683,0
1684,0
1685,0
1686,0
1687,0
1688,1
1689,0
1690,0
1691,0
1692,1
1693,1
1694,1
1695,1
1696,0
1697,0
1698,0
1699,1
1700,1
1701,0
1702,0
1703,0
1704,1
1705,1
1706,1
1707,1
1708,0
1709,1
1710,0
1711,0
1712,0
1713,0
1714,0
1715,1
1716,1
1717,0
1718,1
1719,0
1720,0
1721,0
1722,1
1723,0
1724,1
1725,0
1726,0
1727,1
1728,1
1729,1
1730,1
1731,1
1732,1
1733,1
1734,0
1735,1
1736,0
1737,1
1738,0
1739,0
1740,0
1741,0
1742,1
1743,0
1744,0
1745,0
1746,1
1747,1
1748,0
1749,0
1750,0
1751,1
1752,1
1753,1
1754,1
1755,0
1756,1
1757,0
1758,1
1759,1
1760,1
1761,1
1762,0
1763,1
1764,1
1765,0
1766,0
1767,1
1768,1
1769,0
1770,1
1771,0
1772,0
1773,1
1774,0
1775,0
1776,1
1777,0
1778,0
1779,1
1780,0
1781,1
1782,1
1783,1
1784,1
1785,1
1786,1
1787,1
1788,1
1789,1
1790,0
1791,0
1792,0
1793,1
1794,1
1795,0
1796,0
1797,1
1798,0
1799,0
1800,1
1801,1
1802,1
1803,1
1804,0
1805,1
1806,0
1807,0
1808,0
1809,1
1810,1
1811,1
1812,1
1813,1
1814,0
1815,1
1816,0
1817,1
1818,1
1819,0
1820,0
1821,1
1822,0
1823,1
1824,0
1825,0
1826,1
1827,1
1828,0
1829,0
1830,1
1831,0
1832,1
1833,0
1834,0
1835,0
1836,1
1837,0
1838,1
1839,1
1840,0
1841,0
1842,0
1843,0
1844,0
1845,0
1846,0
1847,0
1848,1
1849,1
1850,0
1851,1
1852,0
1853,0
1854,0
1855,1
1856,0
1857,0
1858,0
1859,1
1860,1
1861,1
1862,0
1863,1
1864,0
1865,1
1866,1
1867,1
1868,0
1869,1
1870,0
1871,0
1872,0
1873,0
1874,1
1875,0
1876,1
1877,0
1878,1
1879,0
1880,0
1881,1
1882,1
1883,1
1884,1
1885,0
1886,0
1887,1
1888,1
1889,1
1890,1
1891,1
1892,0
1893,1
1894,0
1895,0
1896,0
1897,0
1898,1
1899,0
1900,0
1901,0
1902,1
1903,1
1904,1
1905,0
1906,0
1907,1
1908,1
1909,1
1910,1
1911,0
1912,1
1913,0
1914,1
1915,1
1916,1
1917,1
1918,1
1919,0
1920,0
1921,0
1922,0
1923,1
1924,1
1925,1
1926,0
1927,1
1928,1
1929,1
1930,0
1931,1
1932,1
1933,0
1934,1
1935,0
1936,1
1937,1
1938,1
1939,1
1940,1
1941,0
1942,0
1943,0
1944,1
1945,1
1946,0
1947,1
1948,1
1949,0
1950,1
1951,0
1952,0
1953,0
1954,1
1955,0
1956,0
1957,1
1958,1
1959,1
1960,1
1961,0
1962,1
1963,0
1964,1
1965,0
1966,0
1967,0
1968,1
1969,1
1970,1
1971,0
1972,0
1973,0
1974,0
1975,1
1976,0
1977,1
1978,0
1979,0
1980,1
1981,1
1982,1
1983,1
1984,0
1985,0
1986,1
1987,1
1988,0
1989,1
1990,1
1991,1
1992,0
1993,0
1994,1
1995,1
1996,1
1997,1
1998,0
1999,0
2000,1
2001,0
2002,1
2003,0
2004,0
2005,0
2006,0
2007,0
2008,1
2009,1
2010,1
2011,0
2012,1
2013,0
2014,0
2015,0
2016,0
2017,0
2018,0
2019,0
2020,1
2021,1
2022,0
2023,1
2024,0
2025,0
2026,0
2027,0
2028,0
2029,1
2030,1
2031,0
2032,0
2033,1
2034,1
2035,0
2036,0
2037,0
2038,0
2039,1
2040,0
2041,0
2042,1
2043,0
2044,0
2045,1
2046,0
2047,0
2048,1
2049,0
2050,1
2051,0
2052,1
2053,0
2054,1
2055,1
2056,0
2057,0
2058,1
2059,1
2060,1
2061,1
2062,1
2063,1
2064,0
2065,0
2066,1
2067,0
2068,1
2069,1
2070,0
2071,0
2072,1
2073,0
2074,0
2075,0
2076,0
2077,1
2078,0
2079,0
2080,1
2081,1
2082,0
2083,0
2084,1
2085,0
2086,0
2087,0
2088,1
2089,1
2090,0
2091,1
2092,0
2093,0
2094,0
2095,1
2096,0
2097,1
2098,1
2099,1
2100,1
2101,1
2102,0
2103,1
2104,1
2105,0
2106,0
2107,0
2108,1
2109,1
2110,0
2111,1
2112,0
2113,1
2114,0
2115,0
2116,0
2117,1
2118,0
2119,0
2120,1
2121,0
2122,1
2123,1
2124,0
2125,1
2126,0
2127,0
2128,1
2129,1
2130,1
2131,0
2132,1
2133,0
2134,1
2135,1
2136,1
2137,0
2138,0
2139,1
2140,1
2141,1
2142,1
2143,1
2144,1
2145,0
2146,1
2147,0
2148,0
2149,1
2150,1
2151,0
2152,0
2153,0
2154,1
2155,0
2156,1
2157,0
2158,1
2159,1
2160,1
2161,1
2162,1
2163,1
2164,1
2165,1
2166,1
2167,0
2168,1
2169,1
2170,1
2171,1
2172,0
2173,1
2174,1
2175,0
2176,1
2177,0
2178,1
2179,0
2180,1
2181,1
2182,1
2183,0
2184,0
2185,1
2186,0
2187,0
2188,1
2189,1
2190,1
2191,0
2192,0
2193,1
2194,1
2195,0
2196,1
2197,1
2198,0
2199,1
2200,0
2201,1
2202,1
2203,1
2204,0
2205,0
2206,0
2207,0
2208,0
2209,1
2210,1
2211,1
2212,0
2213,0
2214,1
2215,1
2216,1
2217,1
2218,0
2219,0
2220,0
2221,1
2222,1
2223,1
2224,1
2225,1
2226,1
2227,1
2228,1
2229,0
2230,0
2231,1
2232,1
2233,0
2234,1
2235,0
2236,0
2237,1
2238,0
2239,0
2240,1
2241,1
2242,0
2243,0
2244,0
2245,0
2246,1
2247,1
2248,1
2249,1
2250,1
2251,1
2252,0
2253,0
2254,1
2255,1
2256,0
2257,0
2258,0
2259,1
2260,0
2261,1
2262,1
2263,1
2264,0
2265,0
2266,0
2267,1
2268,0
2269,0
2270,1
2271,0
2272,1
2273,0
2274,0
2275,0
2276,0
2277,0
2278,0
2279,1
2280,1
2281,0
2282,1
2283,0
2284,0
2285,1
2286,1
2287,0
2288,0
2289,0
2290,1
2291,0
2292,1
2293,0
2294,0
2295,0
2296,0
2297,0
2298,0
2299,0
2300,1
2301,0
2302,0
2303,0
2304,1
2305,1
2306,1
2307,0
2308,0
2309,0
2310,0
2311,0
2312,0
2313,1
2314,0
2315,1
2316,0
2317,0
2318,0
2319,0
2320,1
2321,0
2322,0
2323,0
2324,0
2325,1
2326,1
2327,0
2328,0
2329,0
2330,0
2331,1
2332,0
2333,1
2334,1
2335,0
2336,0
2337,0
2338,0
2339,1
2340,1
2341,0
2342,1
2343,1
2344,1
2345,1
2346,0
2347,1
2348,1
2349,0
2350,1
2351,1
2352,0
2353,0
2354,0
2355,0
2356,1
2357,1
2358,0
2359,1
2360,0
2361,0
2362,1
2363,0
2364,1
2365,1
2366,1
2367,0
2368,1
2369,0
2370,1
2371,1
2372,1
2373,1
2374,1
2375,0
2376,1
2377,0
2378,0
2379,1
2380,0
2381,1
2382,1
2383,1
2384,1
2385,0
2386,1
2387,1
2388,1
2389,1
2390,0
2391,1
2392,0
2393,1
2394,0
2395,1
2396,1
2397,1
2398,1
2399,0
2400,1
2401,0
2402,1
2403,0
2404,1
2405,1
2406,0
2407,0
2408,0
2409,0
2410,0
2411,1
2412,1
2413,1
2414,0
2415,0
2416,1
2417,1
2418,1
2419,0
2420,1
2421,1
2422,0
2423,0
2424,0
2425,0
2426,0
2427,0
2428,1
2429,0
2430,1
2431,1
2432,0
2433,0
2434,1
2435,0
2436,1
2437,1
2438,0
2439,0
2440,0
2441,1
2442,0
2443,1
2444,1
2445,1
2446,0
2447,0
2448,0
2449,0
2450,1
2451,1
2452,0
2453,0
2454,0
2455,1
2456,0
2457,1
2458,0
2459,1
2460,0
2461,1
2462,1
2463,0
2464,1
2465,0
2466,1
2467,1
2468,1
2469,1
2470,0
2471,1
2472,0
2473,0
2474,0
2475,0
2476,1
2477,0
2478,0
2479,0
2480,1
2481,1
2482,1
2483,1
2484,1
2485,0
2486,0
2487,1
2488,0
2489,1
2490,1
2491,1
2492,0
2493,0
2494,1
2495,1
2496,0
2497,1
2498,1
2499,1
2500,1
2501,0
2502,0
2503,0
2504,0
2505,1
2506,1
2507,1
2508,1
2509,1
2510,1
2511,1
2512,1
2513,1
2514,0
2515,1
2516,1
2517,0
2518,0
2519,1
2520,1
2521,1
2522,1
2523,1
2524,0
2525,1
2526,0
2527,1
2528,0
2529,0
2530,0
2531,0
2532,1
2533,1
2534,1
2535,0
2536,1
2537,1
2538,0
2539,1
2540,0
2541,0
2542,0
2543,1
2544,1
2545,1
2546,1
2547,1
2548,1
2549,0
2550,1
2551,0
2552,1
2553,0
2554,0
2555,1
2556,1
2557,0
2558,0
2559,1
2560,1
2561,0
2562,1
2563,1
2564,0
2565,1
2566,1
2567,1
2568,1
2569,1
2570,1
2571,1
2572,0
2573,0
2574,0
2575,1
2576,0
2577,0
2578,0
2579,1
2580,0
2581,1
2582,0
2583,1
2584,0
2585,1
2586,0
2587,0
2588,1
2589,1
2590,1
2591,1
2592,0
2593,1
2594,1
2595,1
2596,0
2597,1
2598,1
2599,1
2600,0
2601,1
2602,1
2603,0
2604,1
2605,1
2606,0
2607,0
2608,1
2609,1
2610,0
2611,0
2612,0
2613,1
2614,0
2615,1
2616,0
2617,0
2618,0
2619,0
2620,0
2621,0
2622,1
2623,0
2624,0
2625,0
2626,1
2627,1
2628,1
2629,1
2630,1
2631,0
2632,0
2633,1
2634,1
2635,1
2636,0
2637,0
2638,1
2639,0
2640,0
2641,1
2642,1
2643,0
2644,1
2645,1
2646,0
2647,1
2648,0
2649,1
2650,0
2651,0
2652,0
2653,0
2654,0
2655,1
2656,0
2657,0
2658,1
2659,0
2660,0
2661,1
2662,0
2663,1
2664,0
2665,0
2666,1
2667,1
2668,0
2669,0
2670,1
2671,0
2672,0
2673,1
2674,1
2675,0
2676,1
2677,1
2678,1
2679,1
2680,1
2681,0
2682,1
2683,1
2684,1
2685,1
2686,0
2687,1
2688,0
2689,0
2690,0
2691,0
2692,1
2693,0
2694,0
2695,1
2696,1
2697,1
2698,0
2699,0
2700,0
2701,0
2702,1
2703,1
2704,1
2705,1
2706,1
2707,1
2708,1
2709,1
2710,1
2711,1
2712,1
2713,0
2714,0
2715,0
2716,1
2717,0
2718,1
2719,0
2720,0
2721,1
2722,1
2723,1
2724,1
2725,1
2726,1
2727,1
2728,1
2729,0
2730,1
2731,0
2732,1
2733,0
2734,1
2735,0
2736,1
2737,1
2738,0
2739,1
2740,0
2741,0
2742,1
2743,1
2744,1
2745,1
2746,1
2747,0
2748,0
2749,0
2750,1
2751,1
2752,1
2753,0
2754,1
2755,1
2756,1
2757,1
2758,1
2759,0
2760,1
2761,0
2762,0
2763,1
2764,1
2765,1
2766,1
2767,1
2768,1
2769,1
2770,1
2771,1
2772,0
2773,0
2774,1
2775,0
2776,1
2777,0
2778,1
2779,1
2780,0
2781,0
2782,1
2783,1
2784,1
2785,0
2786,0
2787,1
2788,1
2789,1
2790,0
2791,1
2792,0
2793,0
2794,0
2795,1
2796,1
2797,0
2798,1
2799,0
2800,1
2801,1
2802,0
2803,0
2804,0
2805,0
2806,0
2807,0
2808,0
2809,1
2810,0
2811,1
2812,0
2813,1
2814,1
2815,1
2816,0
2817,0
2818,1
2819,0
2820,1
2821,1
2822,1
2823,0
2824,1
2825,1
2826,1
2827,1
2828,0
2829,1
2830,0
2831,1
2832,1
2833,1
2834,1
2835,1
2836,1
2837,1
2838,1
2839,0
2840,0
2841,0
2842,1
2843,1
2844,1
2845,1
2846,0
2847,1
2848,0
2849,0
2850,0
2851,0
2852,0
2853,0
2854,1
2855,1
2856,1
2857,1
2858,1
2859,0
2860,0
2861,1
2862,1
2863,0
2864,1
2865,0
2866,0
2867,1
2868,0
2869,1
2870,1
2871,0
2872,0
2873,1
2874,0
2875,1
2876,1
2877,0
2878,1
2879,1
2880,0
2881,1
2882,0
2883,1
2884,1
2885,0
2886,0
2887,0
2888,1
2889,1
2890,1
2891,1
2892,1
2893,1
2894,0
2895,1
2896,0
2897,0
2898,1
2899,1
2900,1
2901,0
2902,0
2903,0
2904,0
2905,1
2906,0
2907,1
2908,0
2909,1
2910,1
2911,1
2912,1
2913,1
2914,1
2915,1
2916,1
2917,1
2918,1
2919,1
2920,0
2921,1
2922,1
2923,1
2924,0
2925,0
2926,0
2927,0
2928,0
2929,0
2930,1
2931,1
2932,0
2933,0
2934,0
2935,0
2936,1
2937,0
2938,0
2939,0
2940,1
2941,0
2942,0
2943,0
2944,1
2945,0
2946,0
2947,1
2948,1
2949,1
2950,1
2951,0
2952,1
2953,0
2954,1
2955,0
2956,1
2957,1
2958,1
2959,1
2960,0
2961,0
2962,0
2963,1
2964,1
2965,0
2966,0
2967,0
2968,1
2969,0
2970,0
2971,1
2972,1
2973,0
2974,0
2975,1
2976,0
2977,0
2978,0
2979,1
2980,1
2981,0
2982,1
2983,0
2984,0
2985,0
2986,1
2987,0
2988,1
2989,1
2990,1
2991,0
2992,1
2993,0
2994,1
2995,0
2996,1
2997,1
2998,1
2999,0
3000,0
3001,1
3002,1
3003,0
3004,0
3005,0
3006,0
3007,1
3008,0
3009,1
3010,1
3011,0
3012,1
3013,0
3014,1
3015,0
3016,1
3017,0
3018,1
3019,1
3020,1
3021,1
3022,0
3023,1
3024,1
3025,1
3026,0
3027,0
3028,1
3029,1
3030,1
3031,0
3032,1
3033,0
3034,1
3035,1
3036,1
3037,0
3038,1
3039,1
3040,1
3041,0
3042,1
3043,1
3044,1
3045,0
3046,1
3047,0
3048,1
3049,1
3050,0
3051,1
3052,1
3053,1
3054,1
3055,0
3056,1
3057,1
3058,0
3059,0
3060,0
3061,1
3062,1
3063,1
3064,1
3065,1
3066,1
3067,0
3068,1
3069,0
3070,1
3071,1
3072,0
3073,0
3074,1
3075,1
3076,0
3077,0
3078,1
3079,0
3080,1
3081,0
3082,0
3083,1
3084,0
3085,1
3086,0
3087,0
3088,1
3089,0
3090,0
3091,1
3092,0
3093,1
3094,1
3095,1
3096,1
3097,0
3098,1
3099,1
3100,0
3101,1
3102,0
3103,1
3104,0
3105,1
3106,1
3107,0
3108,0
3109,0
3110,0
3111,1
3112,0
3113,0
3114,0
3115,1
3116,1
3117,1
3118,0
3119,1
3120,1
3121,0
3122,0
3123,0
3124,1
3125,0
3126,0
3127,1
3128,1
3129,1
3130,0
3131,0
3132,0
3133,1
3134,1
3135,1
3136,1
3137,0
3138,1
3139,0
3140,1
3141,0
3142,1
3143,1
3144,0
3145,1
3146,0
3147,1
3148,0
3149,1
3150,0
3151,1
3152,1
3153,0
3154,0
3155,1
3156,1
3157,0
3158,0
3159,1
3160,1
3161,1
3162,1
3163,0
3164,1
3165,0
3166,1
3167,0
3168,0
3169,0
3170,0
3171,0
3172,0
3173,0
3174,0
3175,0
3176,1
3177,0
3178,0
3179,0
3180,0
3181,1
3182,1
3183,0
3184,1
3185,1
3186,1
3187,1
3188,1
3189,1
3190,0
3191,1
3192,1
3193,0
3194,0
3195,1
3196,1
3197,0
3198,1
3199,0
3200,0
3201,1
3202,1
3203,1
3204,0
3205,1
3206,1
3207,1
3208,0
3209,1
3210,1
3211,1
3212,0
3213,0
3214,1
3215,1
3216,1
3217,1
3218,0
3219,0
3220,0
3221,1
3222,0
3223,0
3224,0
3225,1
3226,1
3227,1
3228,0
3229,1
3230,1
3231,0
3232,1
3233,0
3234,1
3235,1
3236,0
3237,1
3238,0
3239,1
3240,1
3241,1
3242,0
3243,1
3244,1
3245,1
3246,1
3247,0
3248,1
3249,0
3250,0
3251,0
3252,0
3253,1
3254,0
3255,1
3256,0
3257,1
3258,0
3259,0
3260,1
3261,1
3262,1
3263,0
3264,1
3265,0
3266,0
3267,1
3268,0
3269,0
3270,0
3271,0
3272,0
3273,0
3274,1
3275,1
3276,1
3277,1
3278,0
3279,1
3280,0
3281,1
3282,0
3283,1
3284,1
3285,0
3286,1
3287,0
3288,1
3289,1
3290,1
3291,1
3292,1
3293,1
3294,0
3295,0
3296,0
3297,1
3298,1
3299,0
3300,1
3301,0
3302,0
3303,1
3304,1
3305,1
3306,0
3307,0
3308,0
3309,1
3310,1
3311,1
3312,0
3313,0
3314,1
3315,1
3316,1
3317,1
3318,1
3319,1
3320,0
3321,1
3322,1
3323,0
3324,1
3325,1
3326,0
3327,0
3328,1
3329,1
3330,0
3331,1
3332,0
3333,0
3334,1
3335,0
3336,0
3337,0
3338,0
3339,1
3340,1
3341,1
3342,0
3343,0
3344,1
3345,0
3346,1
3347,0
3348,1
3349,0
3350,1
3351,0
3352,1
3353,0
3354,1
3355,0
3356,0
3357,1
3358,1
3359,0
3360,0
3361,0
3362,0
3363,1
3364,1
3365,1
3366,0
3367,1
3368,1
3369,1
3370,1
3371,0
3372,1
3373,0
3374,0
3375,1
3376,0
3377,0
3378,1
3379,1
3380,1
3381,1
3382,1
3383,1
3384,1
3385,1
3386,0
3387,1
3388,0
3389,0
3390,1
3391,1
3392,0
3393,1
3394,0
3395,1
3396,0
3397,1
3398,1
3399,1
3400,1
3401,1
3402,0
3403,1
3404,0
3405,0
3406,1
3407,1
3408,1
3409,0
3410,1
3411,0
3412,0
3413,1
3414,1
3415,1
3416,0
3417,1
3418,1
3419,1
3420,0
3421,1
3422,1
3423,0
3424,1
3425,1
3426,0
3427,1
3428,1
3429,1
3430,0
3431,1
3432,1
3433,1
3434,1
3435,1
3436,0
3437,0
3438,0
3439,0
3440,0
3441,0
3442,1
3443,1
3444,0
3445,1
3446,1
3447,0
3448,0
3449,0
3450,0
3451,1
3452,0
3453,0
3454,1
3455,1
3456,1
3457,1
3458,1
3459,1
3460,0
3461,1
3462,1
3463,1
3464,1
3465,1
3466,0
3467,1
3468,1
3469,1
3470,1
3471,1
3472,0
3473,0
3474,1
3475,1
3476,0
3477,0
3478,0
3479,1
3480,0
3481,1
3482,0
3483,0
3484,0
3485,1
3486,0
3487,0
3488,0
3489,0
3490,1
3491,1
3492,0
3493,0
3494,0
3495,0
3496,0
3497,1
3498,0
3499,1
3500,1
3501,1
3502,0
3503,1
3504,1
3505,1
3506,0
3507,0
3508,1
3509,0
3510,0
3511,1
3512,0
3513,0
3514,1
3515,1
3516,0
3517,0
3518,0
3519,0
3520,0
3521,1
3522,1
3523,1
3524,0
3525,0
3526,1
3527,1
3528,0
3529,0
3530,1
3531,1
3532,1
3533,0
3534,1
3535,1
3536,0
3537,0
3538,1
3539,1
3540,1
3541,0
3542,1
3543,0
3544,1
3545,1
3546,1
3547,1
3548,0
3549,1
3550,1
3551,0
3552,1
3553,1
3554,1
3555,0
3556,0
3557,1
3558,1
3559,0
3560,0
3561,0
3562,0
3563,1
3564,0
3565,0
3566,0
3567,0
3568,1
3569,1
3570,1
3571,1
3572,0
3573,0
3574,0
3575,0
3576,0
3577,1
3578,1
3579,1
3580,1
3581,0
3582,1
3583,1
3584,0
3585,1
3586,1
3587,1
3588,1
3589,0
3590,0
3591,0
3592,0
3593,1
3594,0
3595,1
3596,1
3597,1
3598,1
3599,1
3600,0
3601,1
3602,1
3603,0
3604,0
3605,0
3606,0
3607,1
3608,1
3609,0
3610,1
3611,0
3612,0
3613,1
3614,0
3615,0
3616,0
3617,0
3618,1
3619,1
3620,1
3621,0
3622,1
3623,0
3624,0
3625,1
3626,0
3627,1
3628,1
3629,0
3630,0
3631,1
3632,1
3633,1
3634,1
3635,1
3636,1
3637,0
3638,0
3639,1
3640,0
3641,1
3642,1
3643,0
3644,0
3645,1
3646,1
3647,1
3648,1
3649,0
3650,1
3651,1
3652,1
3653,1
3654,1
3655,1
3656,0
3657,0
3658,1
3659,1
3660,0
3661,1
3662,1
3663,1
3664,1
3665,1
3666,0
3667,0
3668,1
3669,1
3670,0
3671,1
3672,1
3673,0
3674,1
3675,0
3676,1
3677,1
3678,0
3679,1
3680,1
3681,1
3682,0
3683,1
3684,0
3685,0
3686,1
3687,1
3688,0
3689,0
3690,1
3691,0
3692,0
3693,1
3694,1
3695,0
3696,1
3697,0
3698,1
3699,0
3700,1
3701,0
3702,0
3703,0
3704,0
3705,0
3706,0
3707,1
3708,0
3709,1
3710,0
3711,1
3712,0
3713,0
3714,1
3715,1
3716,1
3717,1
3718,1
3719,1
3720,0
3721,0
3722,1
3723,0
3724,1
3725,0
3726,0
3727,0
3728,1
3729,0
3730,0
3731,0
3732,1
3733,0
3734,0
3735,0
3736,0
3737,1
3738,1
3739,1
3740,0
3741,1
3742,1
3743,0
3744,0
3745,1
3746,0
3747,1
3748,1
3749,1
3750,0
3751,0
3752,1
3753,1
3754,1
3755,0
3756,1
3757,1
3758,1
3759,0
3760,1
3761,1
3762,0
3763,0
3764,0
3765,1
3766,0
3767,0
3768,0
3769,0
3770,1
3771,1
3772,0
3773,0
3774,0
3775,0
3776,0
3777,1
3778,1
3779,0
3780,1
3781,0
3782,0
3783,0
3784,1
3785,1
3786,1
3787,1
3788,0
3789,1
3790,1
3791,0
3792,0
3793,0
3794,1
3795,0
3796,0
3797,0
3798,0
3799,1
3800,0
3801,1
3802,0
3803,1
3804,1
3805,0
3806,1
3807,1
3808,1
3809,1
3810,1
3811,1
3812,1
3813,0
3814,0
3815,0
3816,0
3817,0
3818,0
3819,1
3820,1
3821,0
3822,0
3823,1
3824,0
3825,0
3826,0
3827,0
3828,1
3829,1
3830,0
3831,1
3832,1
3833,0
3834,0
3835,0
3836,0
3837,0
3838,0
3839,1
3840,0
3841,0
3842,0
3843,0
3844,1
3845,0
3846,1
3847,1
3848,0
3849,1
3850,0
3851,1
3852,0
3853,1
3854,0
3855,1
3856,1
3857,0
3858,0
3859,1
3860,1
3861,0
3862,0
3863,1
3864,0
3865,0
3866,0
3867,1
3868,0
3869,0
3870,1
3871,1
3872,1
3873,1
3874,1
3875,1
3876,0
3877,1
3878,0
3879,1
3880,0
3881,1
3882,1
3883,0
3884,1
3885,0
3886,1
3887,0
3888,0
3889,1
3890,1
3891,0
3892,0
3893,0
3894,1
3895,1
3896,0
3897,1
3898,0
3899,1
3900,1
3901,0
3902,1
3903,0
3904,1
3905,1
3906,1
3907,1
3908,1
3909,1
3910,1
3911,0
3912,1
3913,1
3914,1
3915,1
3916,0
3917,1
3918,0
3919,0
3920,1
3921,1
3922,0
3923,1
3924,1
3925,1
3926,1
3927,1
3928,0
3929,1
3930,0
3931,0
3932,0
3933,0
3934,0
3935,0
3936,1
3937,0
3938,1
3939,0
3940,1
3941,1
3942,1
3943,1
3944,0
3945,1
3946,1
3947,1
3948,1
3949,1
3950,1
3951,1
3952,1
3953,0
3954,0
3955,0
3956,1
3957,0
3958,1
3959,0
3960,1
3961,1
3962,1
3963,1
3964,0
3965,1
3966,0
3967,1
3968,1
3969,0
3970,1
3971,1
3972,1
3973,0
3974,0
3975,1
3976,1
3977,0
3978,0
3979,1
3980,1
3981,1
3982,0
3983,1
3984,1
3985,1
3986,1
3987,0
3988,1
3989,1
3990,1
3991,1
3992,1
3993,0
3994,0
3995,0
3996,0
3997,1
3998,1
3999,0
4000,0
4001,1
4002,0
4003,0
4004,0
4005,0
4006,1
4007,0
4008,0
4009,0
4010,0
4011,0
4012,1
4013,0
4014,0
4015,0
4016,1
4017,1
4018,0
4019,0
4020,0
4021,0
4022,0
4023,1
4024,1
4025,1
4026,0
4027,1
4028,1
4029,0
4030,0
4031,1
4032,0
4033,0
4034,0
4035,1
4036,1
4037,0
4038,1
4039,1
4040,1
4041,0
4042,1
4043,0
4044,1
4045,0
4046,0
4047,0
4048,0
4049,1
4050,0
4051,0
4052,1
4053,1
4054,0
4055,0
4056,1
4057,1
4058,0
4059,0
4060,1
4061,0
4062,1
4063,1
4064,0
4065,1
4066,0
4067,0
4068,0
4069,0
4070,0
4071,1
4072,1
4073,1
4074,0
4075,1
4076,1
4077,1
4078,1
4079,0
4080,1
4081,0
4082,0
4083,1
4084,1
4085,0
4086,1
4087,0
4088,1
4089,1
4090,1
4091,1
4092,0
4093,1
4094,1
4095,1
4096,1
4097,0
4098,0
4099,1
4100,0
4101,0
4102,0
4103,0
4104,0
4105,0
4106,0
4107,1
4108,0
4109,1
4110,1
4111,0
4112,0
4113,1
4114,1
4115,1
4116,1
4117,0
4118,0
4119,0
4120,0
4121,1
4122,1
4123,1
4124,0
4125,1
4126,1
4127,1
4128,0
4129,1
4130,1
4131,0
4132,0
4133,0
4134,0
4135,1
4136,1
4137,0
4138,1
4139,0
4140,1
4141,1
4142,1
4143,1
4144,0
4145,1
4146,1
4147,0
4148,1
4149,1
4150,0
4151,1
4152,1
4153,0
4154,0
4155,0
4156,0
4157,0
4158,0
4159,0
4160,1
4161,1
4162,0
4163,0
4164,1
4165,1
4166,1
4167,0
4168,1
4169,0
4170,0
4171,1
4172,0
4173,1
4174,0
4175,1
4176,0
4177,0
4178,1
4179,0
4180,1
4181,1
4182,0
4183,0
4184,0
4185,0
4186,1
4187,0
4188,1
4189,0
4190,1
4191,1
4192,1
4193,0
4194,1
4195,0
4196,1
4197,1
4198,0
4199,0
4200,0
4201,1
4202,0
4203,1
4204,0
4205,1
4206,0
4207,0
4208,1
4209,1
4210,1
4211,1
4212,0
4213,0
4214,0
4215,1
4216,0
4217,1
4218,0
4219,0
4220,0
4221,0
4222,0
4223,0
4224,1
4225,0
4226,1
4227,1
4228,0
4229,0
4230,0
4231,1
4232,1
4233,0
4234,1
4235,1
4236,1
4237,0
4238,1
4239,0
4240,1
4241,1
4242,0
4243,1
4244,1
4245,1
4246,1
4247,1
4248,1
4249,1
4250,0
4251,1
4252,0
4253,0
4254,1
4255,1
4256,1
4257,0
4258,1
4259,1
4260,1
4261,1
4262,1
4263,0
4264,1
4265,1
4266,1
4267,1
4268,0
4269,0
4270,0
4271,0
4272,0
4273,0
4274,0
4275,0
4276,1
4277,1
4278,0
4279,1
4280,1
4281,1
4282,1
4283,0
4284,0
4285,0
4286,0
4287,1
4288,0
4289,1
4290,1
4291,1
4292,1
4293,0
4294,0
4295,1
4296,0
4297,0
4298,1
4299,1
4300,1
4301,1
4302,1
4303,1
4304,1
4305,0
4306,0
4307,1
4308,1
4309,1
4310,0
4311,1
4312,0
4313,0
4314,1
4315,0
4316,1
4317,0
4318,1
4319,0
4320,1
4321,0
4322,0
4323,0
4324,1
4325,0
4326,1
4327,1
4328,1
4329,0
4330,1
4331,0
4332,1
4333,1
4334,0
4335,0
4336,0
4337,0
4338,0
4339,0
4340,0
4341,1
4342,1
4343,1
4344,1
4345,0
4346,0
4347,1
4348,0
4349,1
4350,1
4351,0
4352,1
4353,0
4354,1
4355,0
4356,1
4357,1
4358,1
4359,0
4360,0
4361,0
4362,1
4363,0
4364,0
4365,0
4366,0
4367,1
4368,0
4369,1
4370,1
4371,0
4372,0
4373,0
4374,0
4375,0
4376,1
4377,0
4378,1
4379,0
4380,0
4381,1
4382,1
4383,0
4384,0
4385,1
4386,0
4387,0
4388,1
4389,1
4390,1
4391,1
4392,0
4393,1
4394,0
4395,0
4396,0
4397,1
4398,0
4399,0
4400,0
4401,1
4402,0
4403,0
4404,1
4405,1
4406,0
4407,1
4408,1
4409,1
4410,0
4411,1
4412,0
4413,1
4414,0
4415,1
4416,0
4417,1
4418,0
4419,1
4420,1
4421,0
4422,1
4423,1
4424,1
4425,1
4426,1
4427,0
4428,1
4429,1
4430,1
4431,0
4432,1
4433,1
4434,0
4435,0
4436,0
4437,0
4438,1
4439,1
4440,0
4441,0
4442,0
4443,1
4444,0
4445,0
4446,0
4447,0
4448,1
4449,0
4450,0
4451,0
4452,1
4453,1
4454,0
4455,0
4456,0
4457,1
4458,0
4459,0
4460,0
4461,1
4462,1
4463,1
4464,1
4465,1
4466,1
4467,1
4468,1
4469,1
4470,0
4471,1
4472,1
4473,1
4474,0
4475,1
4476,1
4477,1
4478,0
4479,0
4480,1
4481,0
4482,1
4483,1
4484,1
4485,0
4486,0
4487,1
4488,0
4489,1
4490,0
4491,0
4492,1
4493,0
4494,1
4495,1
4496,0
4497,0
4498,0
4499,1
4500,1
4501,1
4502,0
4503,0
4504,0
4505,1
4506,1
4507,0
4508,1
4509,0
4510,1
4511,1
4512,1
4513,0
4514,1
4515,1
4516,0
4517,1
4518,0
4519,0
4520,0
4521,0
4522,0
4523,0
4524,1
4525,1
4526,0
4527,1
4528,1
4529,0
4530,0
4531,1
4532,0
4533,0
4534,0
4535,0
4536,0
4537,1
4538,1
4539,0
4540,1
4541,1
4542,0
4543,1
4544,0
4545,0
4546,0
4547,1
4548,0
4549,0
4550,1
4551,1
4552,1
4553,0
4554,1
4555,0
4556,0
4557,1
4558,1
4559,1
4560,1
4561,0
4562,1
4563,0
4564,0
4565,1
4566,1
4567,0
4568,0
4569,0
4570,1
4571,0
4572,0
4573,0
4574,1
4575,1
4576,1
4577,1
4578,0
4579,0
4580,0
4581,1
4582,0
4583,0
4584,0
4585,1
4586,1
4587,0
4588,1
4589,1
4590,0
4591,0
4592,0
4593,0
4594,1
4595,0
4596,0
4597,0
4598,1
4599,1
4600,0
4601,0
4602,1
4603,1
4604,0
4605,0
4606,1
4607,0
4608,0
4609,0
4610,0
4611,1
4612,0
4613,1
4614,0
4615,1
4616,1
4617,1
4618,0
4619,1
4620,0
4621,1
4622,1
4623,1
4624,0
4625,0
4626,1
4627,1
4628,0
4629,0
4630,1
4631,0
4632,0
4633,0
4634,1
4635,0
4636,0
4637,1
4638,0
4639,1
4640,1
4641,0
4642,0
4643,1
4644,0
4645,0
4646,1
4647,1
4648,0
4649,1
4650,1
4651,1
4652,1
4653,0
4654,1
4655,0
4656,1
4657,0
4658,0
4659,1
4660,1
4661,1
4662,0
4663,1
4664,1
4665,1
4666,1
4667,1
4668,1
4669,0
4670,0
4671,1
4672,0
4673,0
4674,1
4675,0
4676,1
4677,1
4678,1
4679,0
4680,0
4681,0
4682,0
4683,1
4684,1
4685,1
4686,0
4687,0
4688,0
4689,1
4690,0
4691,0
4692,0
4693,1
4694,0
4695,0
4696,1
4697,0
4698,1
4699,0
4700,1
4701,0
4702,1
4703,1
4704,1
4705,1
4706,0
4707,0
4708,1
4709,1
4710,0
4711,1
4712,1
4713,1
4714,1
4715,0
4716,1
4717,1
4718,0
4719,1
4720,1
4721,0
4722,0
4723,1
4724,1
4725,1
4726,1
4727,1
4728,1
4729,1
4730,1
4731,0
4732,1
4733,0
4734,1
4735,0
4736,0
4737,0
4738,1
4739,0
4740,1
4741,0
4742,0
4743,0
4744,1
4745,0
4746,1
4747,0
4748,1
4749,0
4750,1
4751,1
4752,0
4753,0
4754,1
4755,1
4756,0
4757,1
4758,0
4759,1
4760,1
4761,0
4762,0
4763,1
4764,0
4765,1
4766,0
4767,1
4768,1
4769,0
4770,1
4771,1
4772,1
4773,1
4774,0
4775,0
4776,1
4777,0
4778,1
4779,0
4780,0
4781,1
4782,1
4783,0
4784,1
4785,0
4786,1
4787,1
4788,1
4789,1
4790,1
4791,0
4792,1
4793,0
4794,1
4795,0
4796,0
4797,0
4798,1
4799,1
4800,0
4801,0
4802,0
4803,1
4804,0
4805,0
4806,1
4807,0
4808,1
4809,0
4810,1
4811,0
4812,0
4813,0
4814,1
4815,1
4816,1
4817,1
4818,1
4819,0
4820,1
4821,1
4822,1
4823,1
4824,0
4825,1
4826,1
4827,1
4828,1
4829,0
4830,0
4831,0
4832,0
4833,0
4834,1
4835,1
4836,1
4837,0
4838,0
4839,0
4840,1
4841,1
4842,1
4843,1
4844,0
4845,1
4846,1
4847,1
4848,0
4849,1
4850,1
4851,1
4852,1
4853,1
4854,1
4855,0
4856,1
4857,1
4858,1
4859,0
4860,0
4861,1
4862,0
4863,0
4864,1
4865,0
4866,1
4867,1
4868,1
4869,1
4870,1
4871,0
4872,1
4873,1
4874,0
4875,1
4876,1
4877,0
4878,0
4879,1
4880,0
4881,0
4882,0
4883,0
4884,0
4885,0
4886,1
4887,1
4888,0
4889,0
4890,1
4891,1
4892,0
4893,1
4894,0
4895,1
4896,1
4897,0
4898,0
4899,0
4900,0
4901,0
4902,1
4903,1
4904,0
4905,0
4906,0
4907,0
4908,0
4909,0
4910,0
4911,1
4912,1
4913,0
4914,0
4915,0
4916,1
4917,0
4918,0
4919,1
4920,0
4921,1
4922,0
4923,0
4924,0
4925,1
4926,1
4927,0
4928,0
4929,1
4930,0
4931,0
4932,0
4933,1
4934,1
4935,1
4936,0
4937,1
4938,1
4939,1
4940,1
4941,0
4942,0
4943,1
4944,0
4945,1
4946,0
4947,0
4948,1
4949,0
4950,1
4951,0
4952,0
4953,0
4954,1
4955,0
4956,0
4957,1
4958,0
4959,0
4960,0
4961,0
4962,1
4963,1
4964,1
4965,1
4966,1
4967,0
4968,1
4969,1
4970,0
4971,1
4972,0
4973,1
4974,0
4975,0
4976,1
4977,0
4978,0
4979,1
4980,1
4981,0
4982,1
4983,1
4984,1
4985,1
4986,1
4987,0
4988,1
4989,1
4990,0
4991,0
4992,1
4993,0
4994,1
4995,1
4996,1
4997,1
4998,0
4999,1
5000,1
5001,1
5002,1
5003,1
5004,1
5005,0
5006,0
5007,0
5008,1
5009,0
5010,1
5011,0
5012,1
5013,0
5014,1
5015,1
5016,1
5017,1
5018,0
5019,1
5020,1
5021,1
5022,1
5023,0
5024,1
5025,1
5026,1
5027,1
5028,0
5029,1
5030,0
5031,0
5032,0
5033,1
5034,1
5035,1
5036,0
5037,0
5038,1
5039,1
5040,1
5041,1
5042,0
5043,0
5044,0
5045,1
5046,1
5047,0
5048,1
5049,0
5050,1
5051,0
5052,0
5053,0
5054,0
5055,0
5056,1
5057,0
5058,0
5059,0
5060,0
5061,1
5062,1
5063,1
5064,1
5065,0
5066,1
5067,0
5068,1
5069,0
5070,1
5071,1
5072,0
5073,1
5074,1
5075,1
5076,0
5077,1
5078,1
5079,1
5080,1
5081,1
5082,0
5083,0
5084,0
5085,0
5086,0
5087,0
5088,1
5089,0
5090,1
5091,0
5092,0
5093,0
5094,0
5095,0
5096,1
5097,1
5098,0
5099,0
5100,1
5101,1
5102,0
5103,0
5104,1
5105,0
5106,0
5107,0
5108,0
5109,1
5110,1
5111,0
5112,0
5113,1
5114,1
5115,1
5116,1
5117,0
5118,1
5119,0
5120,1
5121,1
5122,0
5123,0
5124,1
5125,0
5126,1
5127,1
5128,1
5129,0
5130,0
5131,0
5132,0
5133,1
5134,0
5135,0
5136,0
5137,0
5138,0
5139,0
5140,1
5141,0
5142,1
5143,0
5144,1
5145,0
5146,1
5147,1
5148,1
5149,1
5150,1
5151,1
5152,1
5153,0
5154,0
5155,1
5156,1
5157,1
5158,0
5159,1
5160,1
5161,0
5162,1
5163,0
5164,1
5165,1
5166,1
5167,0
5168,1
5169,1
5170,0
5171,1
5172,1
5173,0
5174,1
5175,1
5176,0
5177,1
5178,0
5179,0
5180,1
5181,1
5182,1
5183,0
5184,0
5185,0
5186,0
5187,1
5188,1
5189,1
5190,0
5191,1
5192,1
5193,0
5194,1
5195,1
5196,0
5197,0
5198,1
5199,1
5200,1
5201,0
5202,0
5203,1
5204,0
5205,0
5206,0
5207,1
5208,0
5209,0
5210,1
5211,0
5212,0
5213,0
5214,0
5215,0
5216,1
5217,0
5218,1
5219,1
5220,1
5221,1
5222,1
5223,0
5224,1
5225,1
5226,1
5227,1
5228,1
5229,0
5230,0
5231,1
5232,0
5233,1
5234,1
5235,0
5236,1
5237,1
5238,1
5239,1
5240,0
5241,0
5242,1
5243,0
5244,0
5245,0
5246,1
5247,0
5248,1
5249,1
5250,1
5251,1
5252,0
5253,0
5254,0
5255,0
5256,1
5257,0
5258,0
5259,0
5260,0
5261,0
5262,0
5263,0
5264,1
5265,1
5266,1
5267,0
5268,0
5269,0
5270,0
5271,1
5272,0
5273,1
5274,1
5275,1
5276,1
5277,0
5278,1
5279,1
5280,1
5281,0
5282,1
5283,0
5284,1
5285,1
5286,1
5287,0
5288,1
5289,0
5290,1
5291,0
5292,1
5293,1
5294,0
5295,0
5296,0
5297,1
5298,1
5299,1
5300,1
5301,1
5302,1
5303,0
5304,1
5305,1
5306,1
5307,1
5308,1
5309,0
5310,1
5311,1
5312,1
5313,1
5314,0
5315,1
5316,0
5317,1
5318,1
5319,0
5320,1
5321,0
5322,0
5323,1
5324,0
5325,1
5326,1
5327,1
5328,1
5329,1
5330,0
5331,1
5332,1
5333,1
5334,1
5335,0
5336,1
5337,1
5338,0
5339,1
5340,0
5341,0
5342,0
5343,1
5344,1
5345,1
5346,0
5347,1
5348,1
5349,1
5350,1
5351,1
5352,0
5353,1
5354,1
5355,0
5356,0
5357,1
5358,1
5359,1
5360,0
5361,1
5362,1
5363,1
5364,1
5365,1
5366,1
5367,1
5368,1
5369,0
5370,0
5371,1
5372,1
5373,0
5374,0
5375,1
5376,1
5377,1
5378,0
5379,1
5380,1
5381,0
5382,1
5383,0
5384,1
5385,0
5386,1
5387,1
5388,1
5389,0
5390,1
5391,0
5392,0
5393,0
5394,1
5395,1
5396,1
5397,1
5398,0
5399,0
5400,1
5401,0
5402,1
5403,0
5404,1
5405,0
5406,1
5407,1
5408,1
5409,0
5410,1
5411,0
5412,1
5413,1
5414,1
5415,1
5416,0
5417,1
5418,1
5419,1
5420,1
5421,1
5422,1
5423,0
5424,0
5425,1
5426,1
5427,1
5428,0
5429,1
5430,0
5431,0
5432,1
5433,0
5434,0
5435,0
5436,0
5437,1
5438,1
5439,1
5440,1
5441,1
5442,1
5443,1
5444,1
5445,0
5446,1
5447,0
5448,1
5449,1
5450,1
5451,0
5452,1
5453,0
5454,0
5455,1
5456,1
5457,1
5458,0
5459,1
5460,0
5461,0
5462,0
5463,1
5464,1
5465,1
5466,1
5467,1
5468,1
5469,1
5470,0
5471,0
5472,0
5473,1
5474,0
5475,0
5476,0
5477,1
5478,0
5479,1
5480,0
5481,1
5482,1
5483,1
5484,0
5485,1
5486,0
5487,0
5488,0
5489,0
5490,1
5491,1
5492,0
5493,1
5494,1
5495,1
5496,1
5497,0
5498,1
5499,0
5500,0
5501,1
5502,1
5503,1
5504,0
5505,1
5506,0
5507,1
5508,1
5509,1
5510,0
5511,0
5512,1
5513,1
5514,0
5515,1
5516,0
5517,0
5518,1
5519,0
5520,1
5521,1
5522,1
5523,1
5524,1
5525,1
5526,1
5527,1
5528,0
5529,1
5530,0
5531,0
5532,1
5533,0
5534,1
5535,0
5536,1
5537,1
5538,0
5539,0
5540,0
5541,0
5542,1
5543,0
5544,0
5545,0
5546,0
5547,0
5548,0
5549,0
5550,1
5551,1
5552,0
5553,1
5554,1
5555,0
5556,1
5557,0
5558,0
5559,1
5560,1
5561,1
5562,1
5563,0
5564,0
5565,0
5566,1
5567,0
5568,1
5569,0
5570,1
5571,1
5572,0
5573,1
5574,0
5575,1
5576,0
5577,1
5578,1
5579,1
5580,1
5581,0
5582,0
5583,0
5584,1
5585,1
5586,0
5587,1
5588,0
5589,0
5590,0
5591,1
5592,1
5593,0
5594,1
5595,1
5596,1
5597,0
5598,0
5599,0
5600,0
5601,0
5602,1
5603,1
5604,0
5605,0
5606,0
5607,0
5608,1
5609,0
5610,1
5611,1
5612,0
5613,1
5614,1
5615,0
5616,0
5617,1
5618,1
5619,1
5620,0
5621,0
5622,0
5623,1
5624,0
5625,1
5626,1
5627,0
5628,0
5629,0
5630,0
5631,1
5632,0
5633,1
5634,1
5635,1
5636,0
5637,0
5638,1
5639,1
5640,0
5641,0
5642,0
5643,1
5644,1
5645,1
5646,1
5647,0
5648,0
5649,1
5650,1
5651,1
5652,0
5653,1
5654,1
5655,1
5656,1
5657,1
5658,1
5659,1
5660,1
5661,0
5662,0
5663,0
5664,0
5665,1
5666,1
5667,0
5668,1
5669,0
5670,1
5671,1
5672,0
5673,0
5674,1
5675,0
5676,0
5677,1
5678,0
5679,0
5680,1
5681,0
5682,0
5683,1
5684,0
5685,0
5686,1
5687,1
5688,1
5689,0
5690,1
5691,1
5692,1
5693,1
5694,1
5695,0
5696,0
5697,1
5698,0
5699,0
5700,0
5701,1
5702,0
5703,1
5704,1
5705,0
5706,0
5707,1
5708,1
5709,0
5710,0
5711,1
5712,0
5713,0
5714,0
5715,0
5716,1
5717,1
5718,0
5719,1
5720,0
5721,1
5722,0
5723,1
5724,0
5725,0
5726,1
5727,0
5728,0
5729,1
5730,0
5731,1
5732,1
5733,1
5734,1
5735,1
5736,0
5737,1
5738,1
5739,0
5740,1
5741,1
5742,1
5743,1
5744,1
5745,0
5746,0
5747,0
5748,0
5749,1
5750,0
5751,0
5752,1
5753,0
5754,1
5755,1
5756,1
5757,0
5758,1
5759,0
5760,0
5761,1
5762,1
5763,0
5764,0
5765,0
5766,0
5767,0
5768,1
5769,0
5770,1
5771,1
5772,0
5773,0
5774,0
5775,1
5776,1
5777,1
5778,1
5779,1
5780,0
5781,0
5782,1
5783,1
5784,0
5785,1
5786,1
5787,0
5788,0
5789,0
5790,0
5791,1
5792,0
5793,0
5794,1
5795,1
5796,1
5797,0
5798,0
5799,1
5800,0
5801,1
5802,1
5803,0
5804,0
5805,1
5806,1
5807,1
5808,1
5809,1
5810,0
5811,1
5812,1
5813,0
5814,0
5815,1
5816,1
5817,0
5818,0
5819,1
5820,0
5821,0
5822,1
5823,0
5824,1
5825,0
5826,1
5827,1
5828,0
5829,0
5830,1
5831,1
5832,1
5833,0
5834,1
5835,0
5836,1
5837,1
5838,0
5839,0
5840,0
5841,1
5842,0
5843,1
5844,0
5845,1
5846,0
5847,0
5848,0
5849,1
5850,1
5851,0
5852,1
5853,1
5854,0
5855,0
5856,0
5857,0
5858,1
5859,0
5860,1
5861,0
5862,0
5863,1
5864,1
5865,1
5866,1
5867,0
5868,1
5869,1
5870,1
5871,0
5872,0
5873,1
5874,1
5875,0
5876,0
5877,0
5878,1
5879,0
5880,1
5881,1
5882,1
5883,1
5884,1
5885,0
5886,1
5887,1
5888,0
5889,0
5890,0
5891,0
5892,0
5893,1
5894,1
5895,1
5896,0
5897,0
5898,1
5899,1
5900,0
5901,1
5902,1
5903,1
5904,1
5905,1
5906,0
5907,1
5908,1
5909,0
5910,1
5911,1
5912,1
5913,1
5914,0
5915,1
5916,1
5917,1
5918,0
5919,1
5920,0
5921,1
5922,0
5923,1
5924,1
5925,1
5926,1
5927,1
5928,1
5929,1
5930,1
5931,0
5932,1
5933,1
5934,1
5935,1
5936,1
5937,0
5938,0
5939,1
5940,0
5941,0
5942,0
5943,0
5944,1
5945,1
5946,1
5947,0
5948,0
5949,0
5950,0
5951,1
5952,1
5953,0
5954,1
5955,1
5956,1
5957,0
5958,1
5959,1
5960,1
5961,1
5962,0
5963,1
5964,1
5965,0
5966,1
5967,0
5968,1
5969,1
5970,1
5971,1
5972,1
5973,1
5974,1
5975,1
5976,1
5977,1
5978,1
5979,1
5980,0
5981,0
5982,0
5983,1
5984,1
5985,1
5986,0
5987,0
5988,1
5989,1
5990,1
5991,1
5992,0
5993,0
5994,0
5995,1
5996,1
5997,1
5998,1
5999,0
6000,1
6001,1
6002,1
6003,0
6004,1
6005,1
6006,0
6007,1
6008,1
6009,1
6010,0
6011,1
6012,0
6013,0
6014,0
6015,0
6016,1
6017,0
6018,0
6019,1
6020,1
6021,0
6022,0
6023,0
6024,0
6025,1
6026,1
6027,1
6028,0
6029,1
6030,0
6031,0
6032,0
6033,0
6034,1
6035,1
6036,1
6037,1
6038,1
6039,1
6040,0
6041,1
6042,1
6043,0
6044,1
6045,1
6046,0
6047,1
6048,0
6049,0
6050,1
6051,1
6052,1
6053,0
6054,1
6055,1
6056,1
6057,1
6058,0
6059,0
6060,1
6061,1
6062,0
6063,0
6064,0
6065,0
6066,0
6067,1
6068,0
6069,1
6070,0
6071,0
6072,1
6073,0
6074,1
6075,0
6076,0
6077,0
6078,1
6079,1
6080,1
6081,0
6082,1
6083,1
6084,0
6085,0
6086,1
6087,1
6088,0
6089,0
6090,1
6091,1
6092,0
6093,1
6094,1
6095,1
6096,0
6097,0
6098,0
6099,0
6100,1
6101,0
6102,0
6103,1
6104,1
6105,1
6106,1
6107,1
6108,1
6109,0
6110,1
6111,0
6112,1
6113,1
6114,0
6115,0
6116,0
6117,1
6118,0
6119,1
6120,1
6121,0
6122,0
6123,0
6124,0
6125,1
6126,0
6127,1
6128,0
6129,1
6130,0
6131,0
6132,0
6133,1
6134,1
6135,1
6136,1
6137,0
6138,1
6139,1
6140,1
6141,1
6142,1
6143,0
6144,0
6145,1
6146,0
6147,0
6148,1
6149,0
6150,0
6151,0
6152,0
6153,1
6154,1
6155,1
6156,1
6157,1
6158,1
6159,0
6160,0
6161,0
6162,1
6163,1
6164,0
6165,0
6166,1
6167,0
6168,1
6169,0
6170,1
6171,0
6172,0
6173,1
6174,0
6175,1
6176,1
6177,1
6178,0
6179,1
6180,1
6181,0
6182,1
6183,1
6184,1
6185,0
6186,0
6187,0
6188,1
6189,1
6190,0
6191,1
6192,1
6193,1
6194,0
6195,1
6196,1
6197,1
6198,0
6199,1
6200,0
6201,1
6202,0
6203,1
6204,0
6205,0
6206,1
6207,0
6208,1
6209,1
6210,0
6211,1
6212,1
6213,0
6214,0
6215,1
6216,0
6217,1
6218,0
6219,1
6220,0
6221,1
6222,1
6223,0
6224,1
6225,0
6226,1
6227,0
6228,0
6229,1
6230,0
6231,0
6232,0
6233,1
6234,0
6235,1
6236,1
6237,0
6238,0
6239,0
6240,0
6241,0
6242,1
6243,1
6244,0
6245,1
6246,0
6247,1
6248,1
6249,1
6250,1
6251,0
6252,0
6253,1
6254,0
6255,1
6256,0
6257,1
6258,1
6259,0
6260,1
6261,0
6262,0
6263,0
6264,1
6265,1
6266,0
6267,0
6268,1
6269,0
6270,0
6271,1
6272,0
6273,1
6274,0
6275,0
6276,0
6277,1
6278,1
6279,0
6280,1
6281,1
6282,0
6283,0
6284,1
6285,1
6286,0
6287,1
6288,0
6289,0
6290,1
6291,0
6292,1
6293,0
6294,1
6295,1
6296,0
6297,1
6298,0
6299,0
6300,0
6301,0
6302,1
6303,0
6304,1
6305,0
6306,1
6307,1
6308,0
6309,0
6310,0
6311,0
6312,1
6313,1
6314,1
6315,0
6316,1
6317,1
6318,0
6319,0
6320,1
6321,1
6322,0
6323,1
6324,0
6325,1
6326,1
6327,1
6328,1
6329,0
6330,1
6331,0
6332,1
6333,1
6334,0
6335,0
6336,1
6337,0
6338,0
6339,1
6340,0
6341,0
6342,0
6343,0
6344,0
6345,0
6346,0
6347,0
6348,1
6349,1
6350,0
6351,0
6352,1
6353,1
6354,1
6355,1
6356,1
6357,0
6358,0
6359,0
6360,0
6361,1
6362,0
6363,1
6364,1
6365,1
6366,0
6367,0
6368,1
6369,0
6370,1
6371,1
6372,0
6373,0
6374,0
6375,1
6376,0
6377,1
6378,0
6379,1
6380,1
6381,0
6382,0
6383,1
6384,0
6385,1
6386,1
6387,1
6388,0
6389,0
6390,1
6391,0
6392,0
6393,1
6394,1
6395,1
6396,0
6397,1
6398,0
6399,0
6400,1
6401,0
6402,0
6403,0
6404,1
6405,1
6406,1
6407,0
6408,1
6409,0
6410,1
6411,0
6412,0
6413,0
6414,0
6415,1
6416,1
6417,1
6418,0
6419,0
6420,1
6421,0
6422,0
6423,0
6424,1
6425,0
6426,1
6427,1
6428,1
6429,0
6430,0
6431,1
6432,1
6433,1
6434,0
6435,0
6436,1
6437,0
6438,1
6439,0
6440,1
6441,0
6442,0
6443,1
6444,0
6445,0
6446,0
6447,1
6448,1
6449,1
6450,0
6451,1
6452,1
6453,0
6454,1
6455,1
6456,0
6457,1
6458,0
6459,0
6460,0
6461,1
6462,1
6463,1
6464,1
6465,0
6466,0
6467,1
6468,1
6469,1
6470,0
6471,1
6472,0
6473,1
6474,1
6475,1
6476,1
6477,0
6478,1
6479,1
6480,1
6481,1
6482,1
6483,0
6484,0
6485,1
6486,1
6487,0
6488,0
6489,0
6490,0
6491,1
6492,0
6493,0
6494,0
6495,1
6496,0
6497,1
6498,0
6499,1
6500,1
6501,1
6502,1
6503,0
6504,1
6505,0
6506,1
6507,0
6508,1
6509,1
6510,1
6511,1
6512,1
6513,0
6514,1
6515,1
6516,1
6517,1
6518,0
6519,0
6520,0
6521,0
6522,0
6523,0
6524,1
6525,1
6526,0
6527,0
6528,1
6529,1
6530,0
6531,0
6532,0
6533,1
6534,0
6535,0
6536,0
6537,0
6538,0
6539,1
6540,1
6541,1
6542,1
6543,0
6544,1
6545,1
6546,1
6547,0
6548,0
6549,0
6550,0
6551,0
6552,0
6553,0
6554,1
6555,1
6556,1
6557,0
6558,1
6559,0
6560,1
6561,0
6562,0
6563,1
6564,1
6565,0
6566,1
6567,1
6568,0
6569,1
6570,0
6571,0
6572,1
6573,1
6574,1
6575,1
6576,1
6577,0
6578,0
6579,0
6580,0
6581,0
6582,1
6583,1
6584,1
6585,1
6586,1
6587,0
6588,1
6589,1
6590,0
6591,1
6592,1
6593,0
6594,0
6595,1
6596,1
6597,1
6598,1
6599,1
6600,1
6601,0
6602,0
6603,0
6604,0
6605,0
6606,0
6607,1
6608,1
6609,0
6610,0
6611,1
6612,0
6613,0
6614,0
6615,1
6616,0
6617,1
6618,1
6619,0
6620,1
6621,1
6622,1
6623,0
6624,1
6625,0
6626,0
6627,1
6628,1
6629,0
6630,0
6631,1
6632,0
6633,0
6634,0
6635,1
6636,1
6637,0
6638,0
6639,1
6640,1
6641,1
6642,0
6643,1
6644,1
6645,0
6646,1
6647,0
6648,1
6649,0
6650,0
6651,0
6652,1
6653,1
6654,1
6655,0
6656,1
6657,1
6658,1
6659,1
6660,0
6661,1
6662,0
6663,1
6664,1
6665,1
6666,1
6667,0
6668,1
6669,0
6670,1
6671,1
6672,0
6673,0
6674,1
6675,0
6676,1
6677,0
6678,0
6679,1
6680,0
6681,0
6682,0
6683,0
6684,0
6685,1
6686,1
6687,1
6688,1
6689,1
6690,0
6691,0
6692,0
6693,0
6694,1
6695,0
6696,0
6697,0
6698,1
6699,1
6700,1
6701,1
6702,1
6703,0
6704,0
6705,1
6706,0
6707,0
6708,1
6709,0
6710,1
6711,1
6712,1
6713,1
6714,0
6715,1
6716,1
6717,1
6718,1
6719,1
6720,1
6721,1
6722,1
6723,0
6724,0
6725,1
6726,1
6727,1
6728,0
6729,1
6730,0
6731,0
6732,1
6733,0
6734,1
6735,0
6736,0
6737,1
6738,1
6739,0
6740,1
6741,0
6742,0
6743,1
6744,0
6745,0
6746,0
6747,0
6748,0
6749,1
6750,1
6751,1
6752,0
6753,1
6754,1
6755,0
6756,0
6757,1
6758,1
6759,1
6760,1
6761,0
6762,0
6763,0
6764,1
6765,0
6766,0
6767,0
6768,1
6769,1
6770,1
6771,0
6772,0
6773,0
6774,1
6775,0
6776,1
6777,0
6778,0
6779,1
6780,1
6781,1
6782,0
6783,0
6784,0
6785,1
6786,0
6787,0
6788,1
6789,1
6790,1
6791,0
6792,1
6793,1
6794,0
6795,0
6796,0
6797,1
6798,0
6799,0
6800,1
6801,0
6802,1
6803,1
6804,1
6805,1
6806,1
6807,0
6808,1
6809,1
6810,1
6811,1
6812,0
6813,1
6814,0
6815,0
6816,1
6817,0
6818,0
6819,0
6820,1
6821,1
6822,1
6823,1
6824,1
6825,0
6826,0
6827,1
6828,1
6829,0
6830,0
6831,0
6832,1
6833,1
6834,1
6835,0
6836,0
6837,1
6838,0
6839,0
6840,0
6841,0
6842,1
6843,1
6844,1
6845,0
6846,1
6847,1
6848,0
6849,1
6850,0
6851,0
6852,1
6853,1
6854,1
6855,0
6856,1
6857,1
6858,1
6859,1
6860,0
6861,1
6862,1
6863,1
6864,0
6865,1
6866,1
6867,0
6868,0
6869,1
6870,0
6871,1
6872,1
6873,0
6874,0
6875,0
6876,1
6877,0
6878,0
6879,0
6880,1
6881,0
6882,1
6883,0
6884,0
6885,1
6886,1
6887,1
6888,0
6889,1
6890,1
6891,1
6892,1
6893,0
6894,1
6895,1
6896,0
6897,1
6898,1
6899,1
6900,1
6901,0
6902,1
6903,0
6904,0
6905,1
6906,1
6907,1
6908,0
6909,0
6910,0
6911,0
6912,1
6913,0
6914,0
6915,0
6916,0
6917,0
6918,1
6919,0
6920,1
6921,0
6922,0
6923,1
6924,1
6925,0
6926,1
6927,0
6928,0
6929,1
6930,1
6931,0
6932,1
6933,0
6934,1
6935,0
6936,0
6937,0
6938,1
6939,0
6940,0
6941,1
6942,1
6943,0
6944,0
6945,1
6946,0
6947,1
6948,1
6949,1
6950,1
6951,0
6952,1
6953,1
6954,1
6955,0
6956,0
6957,1
6958,1
6959,1
6960,0
6961,0
6962,1
6963,0
6964,0
6965,0
6966,1
6967,1
6968,0
6969,1
6970,1
6971,1
6972,1
6973,0
6974,1
6975,0
6976,0
6977,0
6978,1
6979,1
6980,1
6981,1
6982,0
6983,0
6984,1
6985,0
6986,1
6987,1
6988,0
6989,1
6990,1
6991,0
6992,1
6993,1
6994,0
6995,1
6996,0
6997,0
6998,1
6999,1
7000,1
7001,0
7002,1
7003,0
7004,1
7005,0
7006,1
7007,1
7008,1
7009,0
7010,1
7011,0
7012,0
7013,1
7014,1
7015,0
7016,0
7017,1
7018,1
7019,0
7020,1
7021,1
7022,0
7023,1
7024,0
7025,0
7026,0
7027,1
7028,1
7029,0
7030,0
7031,0
7032,0
7033,0
7034,0
7035,0
7036,1
7037,1
7038,0
7039,0
7040,0
7041,0
7042,0
7043,1
7044,0
7045,0
7046,0
7047,0
7048,1
7049,0
7050,0
7051,1
7052,1
7053,1
7054,0
7055,1
7056,0
7057,0
7058,0
7059,1
7060,0
7061,0
7062,1
7063,0
7064,1
7065,0
7066,1
7067,1
7068,0
7069,0
7070,1
7071,1
7072,0
7073,1
7074,0
7075,0
7076,0
7077,0
7078,0
7079,1
7080,1
7081,0
7082,1
7083,1
7084,0
7085,1
7086,0
7087,0
7088,1
7089,0
7090,1
7091,0
7092,0
7093,1
7094,1
7095,0
7096,1
7097,1
7098,0
7099,0
7100,0
7101,0
7102,1
7103,1
7104,1
7105,1
7106,1
7107,1
7108,0
7109,1
7110,0
7111,1
7112,0
7113,0
7114,1
7115,1
7116,1
7117,1
7118,0
7119,1
7120,1
7121,1
7122,1
7123,0
7124,1
7125,1
7126,1
7127,1
7128,0
7129,0
7130,1
7131,1
7132,0
7133,1
7134,1
7135,1
7136,1
7137,0
7138,1
7139,0
7140,0
7141,1
7142,0
7143,1
7144,1
7145,0
7146,0
7147,1
7148,1
7149,1
7150,0
7151,0
7152,0
7153,1
7154,0
7155,1
7156,0
7157,1
7158,1
7159,0
7160,1
7161,0
7162,0
7163,1
7164,0
7165,0
7166,1
7167,0
7168,0
7169,1
7170,0
7171,0
7172,0
7173,1
7174,0
7175,0
7176,1
7177,0
7178,0
7179,1
7180,0
7181,1
7182,1
7183,1
7184,0
7185,1
7186,1
7187,0
7188,0
7189,1
7190,1
7191,0
7192,1
7193,1
7194,0
7195,1
7196,0
7197,0
7198,1
7199,0
7200,0
7201,1
7202,1
7203,0
7204,1
7205,0
7206,1
7207,0
7208,0
7209,1
7210,0
7211,1
7212,0
7213,1
7214,1
7215,0
7216,1
7217,1
7218,1
7219,0
7220,0
7221,1
7222,1
7223,0
7224,0
7225,1
7226,1
7227,0
7228,0
7229,0
7230,1
7231,1
7232,0
7233,1
7234,1
7235,1
7236,1
7237,1
7238,0
7239,0
7240,1
7241,0
7242,1
7243,0
7244,0
7245,0
7246,1
7247,1
7248,0
7249,1
7250,0
7251,0
7252,1
7253,0
7254,0
7255,0
7256,1
7257,0
7258,0
7259,0
7260,1
7261,1
7262,1
7263,0
7264,1
7265,1
7266,0
7267,0
7268,0
7269,0
7270,0
7271,0
7272,0
7273,0
7274,1
7275,1
7276,1
7277,0
7278,0
7279,1
7280,1
7281,1
7282,0
7283,1
7284,0
7285,1
7286,1
7287,0
7288,0
7289,0
7290,0
7291,1
7292,0
7293,1
7294,0
7295,0
7296,0
7297,1
7298,1
7299,1
7300,0
7301,0
7302,0
7303,1
7304,1
7305,1
7306,1
7307,1
7308,0
7309,0
7310,0
7311,1
7312,1
7313,0
7314,1
7315,1
7316,0
7317,0
7318,1
7319,0
7320,1
7321,0
7322,0
7323,1
7324,1
7325,0
7326,1
7327,1
7328,1
7329,1
7330,0
7331,0
7332,1
7333,0
7334,1
7335,0
7336,0
7337,1
7338,1
7339,0
7340,1
7341,1
7342,0
7343,1
7344,1
7345,1
7346,0
7347,0
7348,1
7349,1
7350,1
7351,0
7352,0
7353,0
7354,1
7355,0
7356,0
7357,0
7358,1
7359,1
7360,0
7361,1
7362,1
7363,1
7364,1
7365,1
7366,0
7367,0
7368,1
7369,0
7370,1
7371,1
7372,1
7373,0
7374,0
7375,0
7376,0
7377,0
7378,1
7379,1
7380,1
7381,1
7382,1
7383,0
7384,1
7385,0
7386,1
7387,0
7388,1
7389,0
7390,1
7391,1
7392,1
7393,1
7394,0
7395,0
7396,1
7397,0
7398,1
7399,1
7400,1
7401,1
7402,1
7403,1
7404,0
7405,1
7406,0
7407,0
7408,0
7409,0
7410,1
7411,1
7412,0
7413,1
7414,1
7415,1
7416,0
7417,0
7418,0
7419,0
7420,1
7421,0
7422,1
7423,1
7424,1
7425,1
7426,1
7427,1
7428,0
7429,1
7430,1
7431,1
7432,0
7433,0
7434,1
7435,1
7436,1
7437,1
7438,0
7439,1
7440,1
7441,0
7442,0
7443,0
7444,0
7445,0
7446,1
7447,0
7448,0
7449,1
7450,1
7451,0
7452,1
7453,1
7454,1
7455,1
7456,1
7457,0
7458,1
7459,0
7460,0
7461,1
7462,0
7463,1
7464,0
7465,1
7466,1
7467,1
7468,1
7469,1
7470,0
7471,0
7472,0
7473,1
7474,0
7475,0
7476,1
7477,0
7478,0
7479,1
7480,1
7481,0
7482,0
7483,1
7484,1
7485,0
7486,0
7487,1
7488,0
7489,0
7490,1
7491,0
7492,1
7493,0
7494,0
7495,0
7496,0
7497,1
7498,1
7499,1
7500,0
7501,0
7502,0
7503,1
7504,0
7505,0
7506,0
7507,0
7508,0
7509,0
7510,1
7511,1
7512,0
7513,0
7514,0
7515,0
7516,1
7517,1
7518,0
7519,0
7520,1
7521,0
7522,0
7523,1
7524,1
7525,1
7526,1
7527,0
7528,1
7529,1
7530,0
7531,0
7532,0
7533,1
7534,0
7535,0
7536,0
7537,0
7538,1
7539,0
7540,1
7541,0
7542,1
7543,1
7544,0
7545,1
7546,0
7547,0
7548,1
7549,0
7550,1
7551,1
7552,1
7553,0
7554,1
7555,1
7556,0
7557,0
7558,1
7559,1
7560,0
7561,1
7562,1
7563,1
7564,0
7565,0
7566,1
7567,1
7568,1
7569,0
7570,0
7571,0
7572,1
7573,0
7574,1
7575,0
7576,0
7577,1
7578,1
7579,1
7580,1
7581,1
7582,0
7583,1
7584,0
7585,1
7586,1
7587,1
7588,0
7589,0
7590,1
7591,1
7592,0
7593,1
7594,0
7595,1
7596,1
7597,0
7598,0
7599,1
7600,0
7601,1
7602,1
7603,0
7604,0
7605,1
7606,1
7607,1
7608,1
7609,0
7610,0
7611,1
7612,1
7613,1
7614,0
7615,0
7616,1
7617,1
7618,1
7619,0
7620,0
7621,0
7622,1
7623,1
7624,1
7625,1
7626,0
7627,0
7628,1
7629,1
7630,0
7631,1
7632,0
7633,0
7634,0
7635,1
7636,0
7637,1
7638,0
7639,1
7640,0
7641,1
7642,1
7643,0
7644,1
7645,0
7646,0
7647,0
7648,1
7649,0
7650,1
7651,1
7652,1
7653,1
7654,1
7655,1
7656,0
7657,1
7658,0
7659,1
7660,1
7661,0
7662,1
7663,1
7664,1
7665,1
7666,0
7667,1
7668,1
7669,0
7670,0
7671,1
7672,0
7673,1
7674,1
7675,0
7676,0
7677,1
7678,1
7679,0
7680,0
7681,0
7682,1
7683,1
7684,1
7685,0
7686,0
7687,1
7688,0
7689,0
7690,0
7691,0
7692,0
7693,1
7694,1
7695,1
7696,0
7697,0
7698,1
7699,0
7700,1
7701,0
7702,0
7703,1
7704,0
7705,1
7706,0
7707,0
7708,0
7709,0
7710,1
7711,1
7712,0
7713,0
7714,1
7715,1
7716,0
7717,0
7718,0
7719,1
7720,1
7721,0
7722,0
7723,0
7724,0
7725,0
7726,1
7727,0
7728,1
7729,0
7730,0
7731,0
7732,1
7733,0
7734,1
7735,1
7736,1
7737,0
7738,1
7739,0
7740,0
7741,0
7742,0
7743,0
7744,1
7745,1
7746,0
7747,0
7748,1
7749,0
7750,0
7751,0
7752,1
7753,1
7754,0
7755,1
7756,1
7757,0
7758,1
7759,0
7760,1
7761,0
7762,1
7763,1
7764,1
7765,0
7766,1
7767,0
7768,0
7769,1
7770,0
7771,1
7772,1
7773,0
7774,0
7775,1
7776,0
7777,1
7778,1
7779,1
7780,0
7781,0
7782,0
7783,1
7784,1
7785,1
7786,1
7787,0
7788,0
7789,0
7790,1
7791,1
7792,1
7793,0
7794,1
7795,0
7796,0
7797,1
7798,1
7799,0
7800,1
7801,1
7802,0
7803,0
7804,0
7805,0
7806,1
7807,1
7808,0
7809,1
7810,0
7811,0
7812,1
7813,1
7814,1
7815,0
7816,1
7817,1
7818,1
7819,1
7820,1
7821,0
7822,1
7823,0
7824,0
7825,1
7826,1
7827,1
7828,1
7829,1
7830,0
7831,1
7832,1
7833,1
7834,0
7835,1
7836,1
7837,1
7838,1
7839,1
7840,1
7841,0
7842,0
7843,1
7844,1
7845,0
7846,0
7847,1
7848,1
7849,1
7850,1
7851,1
7852,1
7853,1
7854,0
7855,0
7856,1
7857,0
7858,0
7859,0
7860,1
7861,0
7862,1
7863,0
7864,0
7865,1
7866,0
7867,0
7868,1
7869,1
7870,1
7871,0
7872,1
7873,1
7874,0
7875,0
7876,0
7877,0
7878,1
7879,0
7880,1
7881,1
7882,1
7883,1
7884,1
7885,0
7886,0
7887,1
7888,0
7889,1
7890,1
7891,0
7892,1
7893,0
7894,1
7895,1
7896,0
7897,1
7898,0
7899,1
7900,1
7901,0
7902,1
7903,1
7904,0
7905,0
7906,1
7907,0
7908,0
7909,1
7910,0
7911,1
7912,1
7913,1
7914,1
7915,0
7916,1
7917,0
7918,0
7919,0
7920,0
7921,1
7922,1
7923,1
7924,0
7925,1
7926,0
7927,0
7928,1
7929,1
7930,1
7931,0
7932,0
7933,1
7934,1
7935,1
7936,1
7937,1
7938,1
7939,0
7940,0
7941,0
7942,0
7943,0
7944,1
7945,1
7946,0
7947,1
7948,0
7949,1
7950,0
7951,1
7952,1
7953,0
7954,0
7955,1
7956,1
7957,0
7958,1
7959,1
7960,1
7961,0
7962,1
7963,1
7964,0
7965,0
7966,1
7967,1
7968,0
7969,1
7970,0
7971,1
7972,0
7973,0
7974,0
7975,1
7976,0
7977,1
7978,0
7979,1
7980,0
7981,0
7982,1
7983,0
7984,1
7985,1
7986,1
7987,1
7988,0
7989,0
7990,1
7991,0
7992,1
7993,0
7994,0
7995,1
7996,0
7997,1
7998,1
7999,1
8000,1
8001,0
8002,0
8003,1
8004,0
8005,1
8006,1
8007,1
8008,1
8009,0
8010,0
8011,1
8012,1
8013,0
8014,1
8015,0
8016,1
8017,0
8018,0
8019,0
8020,1
8021,1
8022,0
8023,1
8024,1
8025,1
8026,1
8027,1
8028,1
8029,1
8030,0
8031,1
8032,1
8033,0
8034,0
8035,1
8036,1
8037,1
8038,0
8039,1
8040,0
8041,0
8042,0
8043,1
8044,0
8045,1
8046,1
8047,0
8048,0
8049,0
8050,0
8051,1
8052,0
8053,0
8054,1
8055,1
8056,1
8057,1
8058,1
8059,0
8060,1
8061,1
8062,0
8063,1
8064,0
8065,0
8066,1
8067,1
8068,1
8069,1
8070,1
8071,0
8072,1
8073,1
8074,0
8075,0
8076,0
8077,1
8078,1
8079,1
8080,1
8081,0
8082,0
8083,1
8084,1
8085,1
8086,1
8087,0
8088,1
8089,0
8090,0
8091,0
8092,0
8093,1
8094,1
8095,0
8096,1
8097,0
8098,0
8099,0
8100,0
8101,0
8102,1
8103,1
8104,1
8105,0
8106,0
8107,0
8108,0
8109,0
8110,1
8111,1
8112,0
8113,1
8114,1
8115,1
8116,1
8117,1
8118,1
8119,0
8120,0
8121,0
8122,0
8123,1
8124,1
8125,1
8126,0
8127,0
8128,0
8129,1
8130,1
8131,1
8132,0
8133,1
8134,0
8135,0
8136,0
8137,0
8138,1
8139,1
8140,1
8141,0
8142,0
8143,1
8144,0
8145,1
8146,0
8147,1
8148,1
8149,0
8150,0
8151,0
8152,0
8153,1
8154,1
8155,1
8156,1
8157,1
8158,1
8159,1
8160,1
8161,1
8162,1
8163,1
8164,0
8165,1
8166,1
8167,0
8168,0
8169,1
8170,0
8171,1
8172,0
8173,0
8174,1
8175,0
8176,0
8177,1
8178,0
8179,1
8180,1
8181,0
8182,1
8183,1
8184,0
8185,0
8186,0
8187,1
8188,0
8189,1
8190,0
8191,1
8192,0
8193,1
8194,0
8195,1
8196,0
8197,1
8198,1
8199,1
8200,0
8201,1
8202,1
8203,0
8204,0
8205,1
8206,0
8207,1
8208,1
8209,1
8210,0
8211,1
8212,1
8213,0
8214,1
8215,1
8216,1
8217,0
8218,0
8219,1
8220,0
8221,0
8222,0
8223,1
8224,1
8225,0
8226,0
8227,0
8228,0
8229,1
8230,1
8231,1
8232,0
8233,0
8234,1
8235,0
8236,1
8237,1
8238,0
8239,0
8240,0
8241,1
8242,1
8243,1
8244,1
8245,0
8246,1
8247,0
8248,0
8249,1
8250,0
8251,1
8252,1
8253,0
8254,1
8255,1
8256,1
8257,1
8258,1
8259,1
8260,1
8261,1
8262,0
8263,1
8264,0
8265,0
8266,0
8267,0
8268,0
8269,1
8270,0
8271,1
8272,0
8273,1
8274,0
8275,1
8276,0
8277,1
8278,1
8279,0
8280,1
8281,1
8282,0
8283,1
8284,0
8285,1
8286,1
8287,1
8288,1
8289,0
8290,1
8291,0
8292,1
8293,1
8294,0
8295,0
8296,0
8297,0
8298,1
8299,1
8300,1
8301,0
8302,1
8303,0
8304,1
8305,1
8306,0
8307,0
8308,0
8309,0
8310,0
8311,1
8312,1
8313,0
8314,0
8315,0
8316,1
8317,0
8318,1
8319,1
8320,0
8321,1
8322,0
8323,1
8324,1
8325,1
8326,1
8327,1
8328,1
8329,0
8330,0
8331,0
8332,0
8333,0
8334,0
8335,1
8336,0
8337,1
8338,0
8339,1
8340,0
8341,0
8342,1
8343,1
8344,0
8345,1
8346,0
8347,1
8348,1
8349,1
8350,1
8351,1
8352,1
8353,0
8354,1
8355,1
8356,0
8357,0
8358,1
8359,1
8360,1
8361,0
8362,1
8363,0
8364,1
8365,0
8366,0
8367,0
8368,1
8369,1
8370,0
8371,0
8372,0
8373,0
8374,1
8375,0
8376,0
8377,0
8378,0
8379,1
8380,0
8381,1
8382,0
8383,1
8384,1
8385,1
8386,1
8387,1
8388,1
8389,0
8390,0
8391,0
8392,1
8393,0
8394,1
8395,1
8396,1
8397,0
8398,0
8399,0
8400,0
8401,1
8402,0
8403,1
8404,1
8405,0
8406,0
8407,1
8408,1
8409,1
8410,1
8411,1
8412,1
8413,0
8414,1
8415,1
8416,0
8417,0
8418,0
8419,0
8420,0
8421,0
8422,1
8423,0
8424,0
8425,0
8426,1
8427,1
8428,1
8429,1
8430,1
8431,1
8432,0
8433,1
8434,1
8435,0
8436,0
8437,0
8438,1
8439,1
8440,1
8441,0
8442,0
8443,0
8444,1
8445,1
8446,0
8447,0
8448,1
8449,1
8450,0
8451,1
8452,0
8453,0
8454,1
8455,0
8456,0
8457,1
8458,0
8459,0
8460,0
8461,1
8462,0
8463,1
8464,1
8465,0
8466,1
8467,1
8468,1
8469,0
8470,1
8471,1
8472,0
8473,0
8474,1
8475,0
8476,1
8477,1
8478,1
8479,0
8480,1
8481,1
8482,1
8483,1
8484,0
8485,1
8486,1
8487,1
8488,1
8489,1
8490,1
8491,1
8492,0
8493,1
8494,0
8495,1
8496,0
8497,1
8498,0
8499,0
8500,0
8501,1
8502,0
8503,1
8504,0
8505,0
8506,1
8507,0
8508,0
8509,0
8510,0
8511,0
8512,0
8513,0
8514,1
8515,1
8516,1
8517,1
8518,1
8519,0
8520,0
8521,1
8522,1
8523,0
8524,1
8525,1
8526,0
8527,1
8528,1
8529,0
8530,0
8531,0
8532,1
8533,0
8534,1
8535,1
8536,0
8537,1
8538,1
8539,1
8540,0
8541,1
8542,1
8543,1
8544,1
8545,1
8546,0
8547,0
8548,1
8549,0
8550,1
8551,1
8552,1
8553,1
8554,0
8555,0
8556,1
8557,1
8558,1
8559,1
8560,1
8561,1
8562,0
8563,0
8564,1
8565,1
8566,1
8567,1
8568,1
8569,1
8570,0
8571,1
8572,1
8573,0
8574,0
8575,1
8576,0
8577,1
8578,0
8579,1
8580,0
8581,0
8582,0
8583,1
8584,1
8585,1
8586,1
8587,0
8588,1
8589,0
8590,1
8591,0
8592,0
8593,1
8594,0
8595,0
8596,1
8597,0
8598,1
8599,0
8600,1
8601,1
8602,0
8603,0
8604,1
8605,0
8606,1
8607,1
8608,1
8609,1
8610,1
8611,1
8612,0
8613,1
8614,0
8615,1
8616,1
8617,1
8618,0
8619,0
8620,1
8621,1
8622,1
8623,1
8624,0
8625,0
8626,0
8627,1
8628,1
8629,1
8630,1
8631,1
8632,1
8633,0
8634,1
8635,0
8636,1
8637,1
8638,1
8639,1
8640,0
8641,1
8642,1
8643,0
8644,1
8645,0
8646,1
8647,0
8648,0
8649,0
8650,0
8651,1
8652,0
8653,1
8654,0
8655,0
8656,0
8657,1
8658,1
8659,1
8660,0
8661,1
8662,1
8663,1
8664,1
8665,1
8666,0
8667,0
8668,0
8669,0
8670,0
8671,1
8672,1
8673,0
8674,0
8675,1
8676,0
8677,1
8678,0
8679,0
8680,0
8681,1
8682,0
8683,0
8684,0
8685,1
8686,1
8687,0
8688,1
8689,0
8690,1
8691,1
8692,0
8693,1
8694,1
8695,1
8696,0
8697,1
8698,1
8699,1
8700,0
8701,0
8702,0
8703,0
8704,0
8705,1
8706,0
8707,0
8708,0
8709,0
8710,0
8711,0
8712,0
8713,1
8714,0
8715,1
8716,0
8717,0
8718,0
8719,1
8720,1
8721,1
8722,0
8723,1
8724,0
8725,1
8726,0
8727,0
8728,1
8729,1
8730,1
8731,0
8732,1
8733,1
8734,1
8735,0
8736,1
8737,1
8738,0
8739,1
8740,0
8741,1
8742,1
8743,0
8744,0
8745,1
8746,1
8747,0
8748,1
8749,1
8750,1
8751,0
8752,0
8753,1
8754,1
8755,1
8756,1
8757,1
8758,1
8759,1
8760,0
8761,0
8762,1
8763,0
8764,0
8765,0
8766,0
8767,1
8768,0
8769,1
8770,1
8771,0
8772,0
8773,1
8774,1
8775,1
8776,1
8777,0
8778,0
8779,1
8780,0
8781,1
8782,0
8783,0
8784,1
8785,1
8786,1
8787,0
8788,1
8789,1
8790,0
8791,0
8792,1
8793,1
8794,1
8795,1
8796,1
8797,1
8798,0
8799,0
8800,1
8801,1
8802,1
8803,0
8804,0
8805,0
8806,0
8807,1
8808,0
8809,1
8810,0
8811,1
8812,1
8813,1
8814,0
8815,0
8816,0
8817,1
8818,1
8819,1
8820,1
8821,0
8822,0
8823,1
8824,1
8825,1
8826,0
8827,1
8828,1
8829,0
8830,0
8831,1
8832,1
8833,1
8834,1
8835,1
8836,1
8837,0
8838,0
8839,1
8840,1
8841,0
8842,1
8843,1
8844,0
8845,0
8846,1
8847,1
8848,1
8849,1
8850,0
8851,1
8852,1
8853,1
8854,1
8855,1
8856,1
8857,1
8858,0
8859,0
8860,0
8861,1
8862,1
8863,1
8864,1
8865,0
8866,1
8867,1
8868,0
8869,1
8870,0
8871,0
8872,0
8873,1
8874,0
8875,0
8876,0
8877,1
8878,0
8879,0
8880,0
8881,1
8882,1
8883,0
8884,0
8885,0
8886,0
8887,1
8888,1
8889,1
8890,1
8891,0
8892,1
8893,1
8894,0
8895,0
8896,0
8897,0
8898,1
8899,0
8900,0
8901,1
8902,1
8903,1
8904,0
8905,1
8906,1
8907,0
8908,1
8909,1
8910,0
8911,0
8912,0
8913,1
8914,0
8915,1
8916,1
8917,0
8918,1
8919,1
8920,0
8921,0
8922,1
8923,1
8924,0
8925,0
8926,0
8927,1
8928,1
8929,1
8930,0
8931,1
8932,0
8933,1
8934,1
8935,0
8936,1
8937,1
8938,0
8939,1
8940,0
8941,1
8942,0
8943,0
8944,1
8945,1
8946,1
8947,0
8948,0
8949,1
8950,1
8951,1
8952,1
8953,0
8954,0
8955,1
8956,0
8957,1
8958,0
8959,1
8960,1
8961,0
8962,0
8963,1
8964,1
8965,1
8966,1
8967,0
8968,0
8969,1
8970,1
8971,0
8972,0
8973,0
8974,0
8975,1
8976,0
8977,1
8978,1
8979,1
8980,1
8981,0
8982,1
8983,1
8984,1
8985,1
8986,1
8987,0
8988,1
8989,0
8990,0
8991,0
8992,1
8993,0
8994,0
8995,1
8996,0
8997,1
8998,0
8999,0
9000,0
9001,1
9002,0
9003,0
9004,0
9005,1
9006,1
9007,0
9008,0
9009,0
9010,0
9011,1
9012,1
9013,1
9014,1
9015,0
9016,0
9017,1
9018,0
9019,0
9020,1
9021,1
9022,1
9023,1
9024,1
9025,1
9026,1
9027,1
9028,0
9029,0
9030,0
9031,0
9032,0
9033,1
9034,1
9035,0
9036,1
9037,1
9038,1
9039,0
9040,1
9041,0
9042,0
9043,1
9044,0
9045,1
9046,0
9047,0
9048,0
9049,0
9050,0
9051,1
9052,0
9053,0
9054,1
9055,0
9056,0
9057,0
9058,1
9059,1
9060,1
9061,1
9062,0
9063,0
9064,0
9065,1
9066,1
9067,0
9068,0
9069,1
9070,1
9071,0
9072,1
9073,1
9074,0
9075,1
9076,1
9077,0
9078,0
9079,0
9080,1
9081,0
9082,0
9083,1
9084,1
9085,0
9086,1
9087,0
9088,0
9089,0
9090,0
9091,1
9092,0
9093,0
9094,0
9095,1
9096,0
9097,0
9098,1
9099,0
9100,1
9101,0
9102,1
9103,1
9104,1
9105,0
9106,1
9107,0
9108,1
9109,0
9110,0
9111,1
9112,0
9113,0
9114,1
9115,1
9116,0
9117,1
9118,1
9119,1
9120,0
9121,1
9122,0
9123,0
9124,0
9125,1
9126,0
9127,0
9128,0
9129,1
9130,0
9131,1
9132,1
9133,1
9134,1
9135,1
9136,1
9137,0
9138,1
9139,1
9140,1
9141,1
9142,0
9143,1
9144,1
9145,0
9146,1
9147,1
9148,1
9149,0
9150,1
9151,1
9152,1
9153,0
9154,0
9155,1
9156,0
9157,0
9158,1
9159,1
9160,1
9161,0
9162,1
9163,0
9164,0
9165,1
9166,1
9167,1
9168,1
9169,1
9170,0
9171,1
9172,1
9173,1
9174,1
9175,1
9176,0
9177,1
9178,0
9179,1
9180,0
9181,0
9182,1
9183,1
9184,1
9185,1
9186,1
9187,1
9188,0
9189,0
9190,1
9191,1
9192,0
9193,1
9194,1
9195,1
9196,1
9197,0
9198,1
9199,0
9200,1
9201,0
9202,0
9203,1
9204,1
9205,1
9206,1
9207,1
9208,1
9209,0
9210,0
9211,1
9212,1
9213,0
9214,1
9215,1
9216,0
9217,0
9218,1
9219,1
9220,0
9221,1
9222,1
9223,0
9224,1
9225,1
9226,0
9227,1
9228,1
9229,0
9230,1
9231,0
9232,0
9233,1
9234,1
9235,0
9236,1
9237,0
9238,1
9239,0
9240,1
9241,1
9242,0
9243,1
9244,0
9245,1
9246,1
9247,0
9248,0
9249,1
9250,0
9251,0
9252,0
9253,1
9254,0
9255,0
9256,0
9257,0
9258,1
9259,1
9260,1
9261,0
9262,0
9263,0
9264,0
9265,0
9266,1
9267,1
9268,1
9269,1
9270,0
9271,1
9272,0
9273,1
9274,0
9275,1
9276,0
9277,1
9278,1
9279,1
9280,1
9281,1
9282,1
9283,0
9284,1
9285,1
9286,0
9287,1
9288,0
9289,1
9290,1
9291,1
9292,1
9293,0
9294,0
9295,1
9296,1
9297,1
9298,1
9299,1
9300,1
9301,0
9302,1
9303,1
9304,1
9305,1
9306,0
9307,0
9308,1
9309,1
9310,1
9311,0
9312,1
9313,1
9314,0
9315,1
9316,0
9317,0
9318,0
9319,1
9320,0
9321,1
9322,1
9323,1
9324,1
9325,0
9326,1
9327,0
9328,0
9329,0
9330,0
9331,1
9332,0
9333,1
9334,1
9335,1
9336,1
9337,1
9338,1
9339,0
9340,1
9341,0
9342,1
9343,0
9344,1
9345,1
9346,0
9347,1
9348,0
9349,0
9350,1
9351,0
9352,0
9353,0
9354,1
9355,1
9356,1
9357,1
9358,1
9359,1
9360,1
9361,0
9362,1
9363,0
9364,1
9365,0
9366,0
9367,0
9368,1
9369,1
9370,1
9371,1
9372,1
9373,1
9374,0
9375,1
9376,1
9377,1
9378,1
9379,1
9380,1
9381,0
9382,0
9383,1
9384,0
9385,0
9386,1
9387,0
9388,1
9389,0
9390,0
9391,0
9392,0
9393,1
9394,0
9395,1
9396,1
9397,1
9398,0
9399,1
9400,1
9401,0
9402,1
9403,0
9404,1
9405,0
9406,0
9407,1
9408,0
9409,1
9410,1
9411,0
9412,0
9413,1
9414,0
9415,1
9416,1
9417,1
9418,0
9419,0
9420,1
9421,1
9422,0
9423,1
9424,1
9425,0
9426,0
9427,0
9428,1
9429,0
9430,1
9431,1
9432,1
9433,0
9434,0
9435,1
9436,1
9437,1
9438,0
9439,0
9440,0
9441,1
9442,0
9443,0
9444,0
9445,1
9446,1
9447,1
9448,1
9449,1
9450,0
9451,0
9452,0
9453,1
9454,1
9455,0
9456,0
9457,0
9458,1
9459,0
9460,1
9461,1
9462,0
9463,0
9464,0
9465,1
9466,0
9467,1
9468,0
9469,0
9470,1
9471,0
9472,1
9473,1
9474,0
9475,0
9476,1
9477,0
9478,0
9479,1
9480,0
9481,1
9482,0
9483,0
9484,0
9485,1
9486,1
9487,1
9488,1
9489,1
9490,1
9491,0
9492,0
9493,1
9494,1
9495,0
9496,0
9497,1
9498,0
9499,0
9500,0
9501,1
9502,0
9503,1
9504,1
9505,1
9506,0
9507,0
9508,1
9509,1
9510,1
9511,0
9512,0
9513,0
9514,0
9515,1
9516,0
9517,0
9518,1
9519,1
9520,0
9521,1
9522,0
9523,0
9524,0
9525,0
9526,0
9527,0
9528,0
9529,1
9530,1
9531,1
9532,0
9533,1
9534,1
9535,0
9536,0
9537,1
9538,0
9539,1
9540,0
9541,0
9542,0
9543,0
9544,1
9545,1
9546,1
9547,0
9548,0
9549,1
9550,0
9551,1
9552,1
9553,1
9554,1
9555,1
9556,0
9557,1
9558,0
9559,0
9560,1
9561,0
9562,0
9563,0
9564,0
9565,1
9566,0
9567,1
9568,1
9569,1
9570,0
9571,0
9572,1
9573,0
9574,1
9575,1
9576,0
9577,1
9578,0
9579,0
9580,1
9581,0
9582,0
9583,1
9584,1
9585,1
9586,1
9587,0
9588,0
9589,1
9590,1
9591,1
9592,1
9593,1
9594,1
9595,0
9596,0
9597,1
9598,1
9599,1
9600,1
9601,1
9602,1
9603,1
9604,1
9605,0
9606,0
9607,1
9608,1
9609,0
9610,0
9611,0
9612,0
9613,1
9614,1
9615,1
9616,0
9617,0
9618,1
9619,1
9620,0
9621,1
9622,0
9623,1
9624,1
9625,1
9626,1
9627,0
9628,1
9629,0
9630,1
9631,0
9632,1
9633,0
9634,1
9635,0
9636,0
9637,1
9638,0
9639,0
9640,1
9641,1
9642,0
9643,1
9644,0
9645,0
9646,1
9647,1
9648,0
9649,1
9650,0
9651,1
9652,1
9653,0
9654,1
9655,1
9656,1
9657,1
9658,0
9659,1
9660,1
9661,0
9662,0
9663,0
9664,0
9665,1
9666,0
9667,0
9668,1
9669,1
9670,1
9671,1
9672,1
9673,0
9674,1
9675,1
9676,1
9677,1
9678,1
9679,1
9680,1
9681,0
9682,1
9683,1
9684,1
9685,0
9686,1
9687,0
9688,1
9689,1
9690,1
9691,0
9692,0
9693,0
9694,0
9695,1
9696,1
9697,0
9698,0
9699,1
9700,0
9701,1
9702,1
9703,1
9704,0
9705,1
9706,1
9707,1
9708,0
9709,0
9710,1
9711,1
9712,0
9713,1
9714,1
9715,0
9716,0
9717,1
9718,1
9719,0
9720,0
9721,0
9722,0
9723,1
9724,1
9725,0
9726,0
9727,0
9728,0
9729,0
9730,0
9731,0
9732,0
9733,0
9734,0
9735,0
9736,0
9737,0
9738,1
9739,0
9740,0
9741,0
9742,1
9743,1
9744,0
9745,0
9746,1
9747,1
9748,1
9749,1
9750,1
9751,1
9752,1
9753,1
9754,1
9755,0
9756,1
9757,1
9758,1
9759,1
9760,0
9761,0
9762,1
9763,1
9764,0
9765,0
9766,1
9767,0
9768,0
9769,1
9770,1
9771,1
9772,1
9773,0
9774,0
9775,1
9776,0
9777,1
9778,1
9779,1
9780,0
9781,0
9782,0
9783,1
9784,1
9785,0
9786,1
9787,0
9788,1
9789,0
9790,0
9791,0
9792,0
9793,1
9794,0
9795,1
9796,1
9797,0
9798,1
9799,0
9800,1
9801,0
9802,1
9803,0
9804,0
9805,0
9806,1
9807,1
9808,1
9809,0
9810,0
9811,0
9812,1
9813,1
9814,1
9815,1
9816,1
9817,0
9818,1
9819,1
9820,1
9821,1
9822,1
9823,1
9824,0
9825,0
9826,1
9827,1
9828,1
9829,1
9830,1
9831,1
9832,1
9833,1
9834,0
9835,1
9836,0
9837,1
9838,1
9839,1
9840,1
9841,0
9842,0
9843,1
9844,1
9845,0
9846,0
9847,0
9848,0
9849,0
9850,1
9851,0
9852,1
9853,1
9854,1
9855,0
9856,0
9857,1
9858,0
9859,1
9860,0
9861,0
9862,0
9863,1
9864,0
9865,0
9866,1
9867,1
9868,0
9869,1
9870,0
9871,0
9872,0
9873,0
9874,0
9875,1
9876,0
9877,0
9878,0
9879,1
9880,1
9881,0
9882,1
9883,0
9884,1
9885,0
9886,0
9887,1
9888,0
9889,1
9890,1
9891,1
9892,1
9893,1
9894,1
9895,0
9896,1
9897,0
9898,0
9899,1
9900,0
9901,0
9902,0
9903,1
9904,0
9905,0
9906,0
9907,0
9908,1
9909,1
9910,0
9911,0
9912,0
9913,0
9914,1
9915,0
9916,1
9917,0
9918,1
9919,0
9920,1
9921,0
9922,0
9923,0
9924,1
9925,1
9926,0
9927,1
9928,1
9929,0
9930,1
9931,1
9932,0
9933,0
9934,1
9935,1
9936,0
9937,0
9938,0
9939,0
9940,1
9941,0
9942,1
9943,0
9944,1
9945,0
9946,0
9947,0
9948,0
9949,1
9950,0
9951,0
9952,1
9953,1
9954,1
9955,1
9956,1
9957,1
9958,1
9959,1
9960,1
9961,0
9962,1
9963,0
9964,0
9965,1
9966,1
9967,1
9968,1
9969,1
9970,1
9971,0
9972,0
9973,1
9974,0
9975,0
9976,1
9977,0
9978,1
9979,1
9980,1
9981,1
9982,0
9983,0
9984,0
9985,1
9986,1
9987,0
9988,1
9989,0
9990,0
9991,0
9992,1
9993,0
9994,0
9995,0
9996,1
9997,1
9998,1
9999,1
10000,1
10001,0
10002,0
10003,1
10004,0
10005,1
10006,0
10007,0
10008,1
10009,0
10010,0
10011,1
10012,0
10013,0
10014,1
10015,1
10016,0
10017,0
10018,1
10019,1
10020,1
10021,0
10022,1
10023,0
10024,1
10025,1
10026,0
10027,1
10028,0
10029,1
10030,1
10031,1
10032,0
10033,0
10034,0
10035,0
10036,1
10037,1
10038,1
10039,1
10040,1
10041,1
10042,1
10043,0
10044,0
10045,1
10046,1
10047,1
10048,1
10049,0
10050,0
10051,1
10052,1
10053,1
10054,1
10055,0
10056,0
10057,1
10058,0
10059,0
10060,0
10061,0
10062,0
10063,1
10064,1
10065,1
10066,0
10067,1
10068,0
10069,0
10070,1
10071,0
10072,0
10073,1
10074,0
10075,0
10076,1
10077,1
10078,1
10079,0
10080,0
10081,0
10082,0
10083,0
10084,1
10085,1
10086,0
10087,1
10088,0
10089,0
10090,0
10091,1
10092,1
10093,0
10094,1
10095,1
10096,0
10097,1
10098,1
10099,1
10100,1
10101,1
10102,1
10103,0
10104,1
10105,1
10106,1
10107,0
10108,1
10109,1
10110,1
10111,0
10112,1
10113,1
10114,1
10115,1
10116,1
10117,1
10118,0
10119,0
10120,0
10121,0
10122,0
10123,1
10124,0
10125,0
10126,0
10127,1
10128,1
10129,0
10130,0
10131,1
10132,1
10133,1
10134,1
10135,1
10136,0
10137,0
10138,1
10139,1
10140,1
10141,1
10142,0
10143,0
10144,1
10145,0
10146,1
10147,0
10148,1
10149,0
10150,1
10151,0
10152,0
10153,0
10154,1
10155,0
10156,0
10157,0
10158,0
10159,0
10160,0
10161,0
10162,1
10163,1
10164,0
10165,1
10166,1
10167,1
10168,0
10169,1
10170,0
10171,0
10172,1
10173,0
10174,0
10175,0
10176,1
10177,1
10178,1
10179,1
10180,0
10181,1
10182,0
10183,1
10184,0
10185,1
10186,1
10187,1
10188,0
10189,1
10190,1
10191,1
10192,1
10193,0
10194,1
10195,1
10196,1
10197,0
10198,0
10199,1
10200,0
10201,0
10202,1
10203,1
10204,0
10205,0
10206,0
10207,0
10208,0
10209,1
10210,1
10211,0
10212,0
10213,1
10214,0
10215,0
10216,0
10217,1
10218,1
10219,1
10220,1
10221,1
10222,0
10223,1
10224,0
10225,1
10226,1
10227,1
10228,0
10229,0
10230,1
10231,1
10232,1
10233,1
10234,0
10235,1
10236,0
10237,0
10238,1
10239,0
10240,0
10241,1
10242,1
10243,1
10244,0
10245,1
10246,0
10247,1
10248,0
10249,1
10250,1
10251,0
10252,0
10253,0
10254,1
10255,0
10256,0
10257,1
10258,1
10259,0
10260,0
10261,1
10262,1
10263,1
10264,1
10265,0
10266,1
10267,0
10268,1
10269,1
10270,1
10271,1
10272,1
10273,1
10274,0
10275,0
10276,1
10277,0
10278,0
10279,1
10280,0
10281,1
10282,1
10283,1
10284,1
10285,0
10286,1
10287,1
10288,0
10289,1
10290,1
10291,1
10292,0
10293,1
10294,0
10295,1
10296,1
10297,1
10298,0
10299,0
10300,1
10301,1
10302,1
10303,1
10304,1
10305,1
10306,1
10307,0
10308,1
10309,0
10310,1
10311,0
10312,1
10313,1
10314,0
10315,1
10316,1
10317,1
10318,0
10319,0
10320,1
10321,1
10322,1
10323,0
10324,1
10325,0
10326,1
10327,1
10328,0
10329,1
10330,1
10331,0
10332,1
10333,0
10334,1
10335,1
10336,1
10337,0
10338,0
10339,1
10340,0
10341,0
10342,0
10343,0
10344,1
10345,1
10346,0
10347,0
10348,1
10349,1
10350,1
10351,1
10352,1
10353,1
10354,1
10355,1
10356,0
10357,1
10358,0
10359,0
10360,1
10361,0
10362,1
10363,1
10364,1
10365,0
10366,1
10367,0
10368,1
10369,0
10370,0
10371,1
10372,1
10373,0
10374,1
10375,1
10376,0
10377,0
10378,0
10379,1
10380,0
10381,1
10382,1
10383,0
10384,0
10385,1
10386,0
10387,0
10388,0
10389,1
10390,1
10391,0
10392,1
10393,0
10394,1
10395,1
10396,0
10397,0
10398,0
10399,0
10400,0
10401,1
10402,1
10403,1
10404,0
10405,0
10406,0
10407,1
10408,0
10409,0
10410,0
10411,1
10412,0
10413,1
10414,1
10415,0
10416,0
10417,0
10418,1
10419,0
10420,0
10421,0
10422,1
10423,0
10424,0
10425,1
10426,0
10427,1
10428,0
10429,0
10430,1
10431,0
10432,1
10433,1
10434,1
10435,0
10436,1
10437,0
10438,0
10439,0
10440,1
10441,1
10442,0
10443,1
10444,1
10445,1
10446,0
10447,0
10448,1
10449,1
10450,1
10451,0
10452,1
10453,1
10454,0
10455,0
10456,1
10457,0
10458,1
10459,0
10460,1
10461,1
10462,0
10463,1
10464,1
10465,1
10466,0
10467,0
10468,0
10469,0
10470,1
10471,0
10472,0
10473,1
10474,1
10475,0
10476,1
10477,0
10478,0
10479,1
10480,1
10481,1
10482,0
10483,0
10484,1
10485,1
10486,0
10487,1
10488,1
10489,1
10490,1
10491,0
10492,0
10493,1
10494,1
10495,0
10496,1
10497,1
10498,0
10499,1
10500,0
10501,1
10502,1
10503,0
10504,1
10505,1
10506,0
10507,0
10508,0
10509,0
10510,1
10511,0
10512,0
10513,0
10514,1
10515,1
10516,1
10517,1
10518,1
10519,1
10520,0
10521,0
10522,1
10523,1
10524,0
10525,1
10526,1
10527,0
10528,1
10529,0
10530,0
10531,1
10532,0
10533,0
10534,1
10535,0
10536,1
10537,0
10538,0
10539,1
10540,1
10541,1
10542,0
10543,0
10544,1
10545,0
10546,1
10547,0
10548,1
10549,1
10550,0
10551,1
10552,1
10553,0
10554,0
10555,0
10556,1
10557,1
10558,0
10559,0
10560,0
10561,0
10562,1
10563,0
10564,1
10565,0
10566,1
10567,1
10568,0
10569,0
10570,0
10571,1
10572,1
10573,0
10574,0
10575,0
10576,1
10577,1
10578,1
10579,0
10580,0
10581,1
10582,0
10583,0
10584,1
10585,0
10586,0
10587,1
10588,1
10589,0
10590,0
10591,0
10592,1
10593,0
10594,1
10595,1
10596,0
10597,0
10598,1
10599,1
10600,0
10601,0
10602,1
10603,1
10604,0
10605,1
10606,1
10607,1
10608,1
10609,0
10610,1
10611,0
10612,1
10613,0
10614,1
10615,0
10616,1
10617,0
10618,1
10619,1
10620,0
10621,0
10622,1
10623,1
10624,1
10625,1
10626,1
10627,0
10628,0
10629,1
10630,0
10631,1
10632,1
10633,1
10634,1
10635,0
10636,0
10637,0
10638,0
10639,1
10640,0
10641,1
10642,1
10643,1
10644,0
10645,1
10646,0
10647,0
10648,1
10649,0
10650,0
10651,1
10652,0
10653,0
10654,1
10655,0
10656,1
10657,1
10658,1
10659,1
10660,0
10661,1
10662,1
10663,0
10664,1
10665,1
10666,1
10667,0
10668,0
10669,0
10670,0
10671,0
10672,0
10673,1
10674,0
10675,0
10676,0
10677,0
10678,0
10679,1
10680,1
10681,1
10682,1
10683,1
10684,0
10685,0
10686,1
10687,0
10688,0
10689,1
10690,0
10691,1
10692,0
10693,1
10694,0
10695,1
10696,1
10697,1
10698,0
10699,0
10700,0
10701,1
10702,0
10703,0
10704,0
10705,1
10706,1
10707,1
10708,1
10709,1
10710,0
10711,1
10712,1
10713,1
10714,1
10715,1
10716,1
10717,1
10718,1
10719,1
10720,1
10721,0
10722,0
10723,1
10724,1
10725,1
10726,1
10727,1
10728,0
10729,0
10730,1
10731,0
10732,0
10733,0
10734,0
10735,1
10736,1
10737,0
10738,0
10739,0
10740,0
10741,1
10742,0
10743,0
10744,0
10745,0
10746,0
10747,0
10748,0
10749,0
10750,1
10751,0
10752,0
10753,0
10754,0
10755,0
10756,1
10757,1
10758,1
10759,1
10760,0
10761,0
10762,0
10763,0
10764,0
10765,1
10766,1
10767,1
10768,1
10769,1
10770,1
10771,0
10772,0
10773,0
10774,1
10775,1
10776,0
10777,1
10778,0
10779,0
10780,0
10781,0
10782,1
10783,0
10784,0
10785,0
10786,1
10787,1
10788,1
10789,1
10790,1
10791,0
10792,0
10793,1
10794,1
10795,0
10796,0
10797,1
10798,1
10799,0
10800,0
10801,0
10802,1
10803,0
10804,1
10805,1
10806,1
10807,1
10808,1
10809,0
10810,0
10811,1
10812,0
10813,0
10814,0
10815,0
10816,0
10817,1
10818,0
10819,1
10820,0
10821,1
10822,1
10823,0
10824,0
10825,1
10826,1
10827,0
10828,0
10829,1
10830,1
10831,1
10832,1
10833,1
10834,0
10835,1
10836,0
10837,1
10838,1
10839,0
10840,0
10841,0
10842,1
10843,0
10844,1
10845,1
10846,0
10847,0
10848,0
10849,0
10850,1
10851,1
10852,1
10853,1
10854,1
10855,1
10856,0
10857,0
10858,1
10859,0
10860,1
10861,1
10862,0
10863,1
10864,1
10865,1
10866,0
10867,1
10868,0
10869,1
10870,1
10871,0
10872,0
10873,0
10874,0
10875,0
10876,0
10877,1
10878,1
10879,1
10880,0
10881,0
10882,0
10883,1
10884,1
10885,0
10886,0
10887,0
10888,1
10889,0
10890,1
10891,0
10892,1
10893,0
10894,0
10895,1
10896,1
10897,1
10898,1
10899,0
10900,0
10901,0
10902,1
10903,1
10904,0
10905,1
10906,0
10907,1
10908,0
10909,1
10910,0
10911,0
10912,1
10913,1
10914,0
10915,1
10916,1
10917,0
10918,1
10919,0
10920,1
10921,1
10922,0
10923,1
10924,0
10925,1
10926,1
10927,0
10928,0
10929,1
10930,1
10931,0
10932,1
10933,0
10934,1
10935,1
10936,0
10937,0
10938,1
10939,1
10940,1
10941,1
10942,0
10943,0
10944,1
10945,0
10946,0
10947,0
10948,1
10949,0
10950,0
10951,1
10952,1
10953,0
10954,0
10955,1
10956,0
10957,0
10958,0
10959,0
10960,1
10961,0
10962,0
10963,1
10964,1
10965,0
10966,0
10967,1
10968,1
10969,0
10970,0
10971,0
10972,0
10973,0
10974,0
10975,0
10976,0
10977,1
10978,0
10979,1
10980,0
10981,0
10982,1
10983,1
10984,0
10985,0
10986,0
10987,1
10988,0
10989,1
10990,1
10991,0
10992,0
10993,1
10994,1
10995,0
10996,1
10997,0
10998,1
10999,0
11000,1
11001,1
11002,0
11003,1
11004,0
11005,1
11006,1
11007,1
11008,0
11009,1
11010,1
11011,0
11012,0
11013,1
11014,0
11015,1
11016,1
11017,1
11018,0
11019,1
11020,1
11021,1
11022,0
11023,1
11024,1
11025,0
11026,1
11027,0
11028,0
11029,0
11030,1
11031,1
11032,0
11033,1
11034,0
11035,1
11036,1
11037,1
11038,1
11039,0
11040,0
11041,1
11042,0
11043,1
11044,1
11045,0
11046,1
11047,1
11048,0
11049,0
11050,1
11051,1
11052,1
11053,1
11054,0
11055,1
11056,0
11057,1
11058,0
11059,0
11060,0
11061,0
11062,1
11063,1
11064,0
11065,1
11066,0
11067,1
11068,0
11069,1
11070,1
11071,1
11072,0
11073,0
11074,1
11075,0
11076,0
11077,0
11078,1
11079,1
11080,1
11081,1
11082,0
11083,1
11084,1
11085,0
11086,0
11087,0
11088,1
11089,1
11090,1
11091,0
11092,1
11093,1
11094,0
11095,1
11096,1
11097,0
11098,1
11099,0
11100,1
11101,1
11102,1
11103,0
11104,1
11105,0
11106,0
11107,1
11108,1
11109,0
11110,0
11111,0
11112,0
11113,0
11114,1
11115,1
11116,0
11117,1
11118,0
11119,0
11120,0
11121,1
11122,1
11123,1
11124,0
11125,0
11126,1
11127,1
11128,0
11129,1
11130,0
11131,0
11132,0
11133,1
11134,0
11135,0
11136,0
11137,0
11138,1
11139,0
11140,1
11141,1
11142,0
11143,1
11144,1
11145,1
11146,0
11147,1
11148,1
11149,1
11150,0
11151,1
11152,1
11153,1
11154,1
11155,1
11156,1
11157,0
11158,0
11159,1
11160,1
11161,1
11162,1
11163,1
11164,0
11165,1
11166,0
11167,1
11168,1
11169,1
11170,0
11171,0
11172,0
11173,1
11174,0
11175,0
11176,0
11177,1
11178,1
11179,0
11180,1
11181,0
11182,0
11183,1
11184,0
11185,1
11186,1
11187,1
11188,1
11189,1
11190,0
11191,1
11192,1
11193,1
11194,0
11195,1
11196,0
11197,1
11198,1
11199,0
11200,0
11201,1
11202,0
11203,0
11204,1
11205,1
11206,0
11207,1
11208,0
11209,0
11210,1
11211,0
11212,0
11213,0
11214,0
11215,0
11216,1
11217,0
11218,1
11219,1
11220,1
11221,0
11222,0
11223,1
11224,1
11225,0
11226,1
11227,1
11228,1
11229,0
11230,1
11231,1
11232,0
11233,0
11234,0
11235,1
11236,1
11237,0
11238,1
11239,1
11240,0
11241,0
11242,1
11243,0
11244,0
11245,1
11246,0
11247,1
11248,1
11249,1
11250,1
11251,0
11252,0
11253,0
11254,1
11255,0
11256,0
11257,0
11258,1
11259,1
11260,0
11261,1
11262,1
11263,0
11264,0
11265,1
11266,1
11267,1
11268,0
11269,1
11270,1
11271,1
11272,1
11273,0
11274,1
11275,0
11276,1
11277,1
11278,1
11279,1
11280,0
11281,1
11282,0
11283,0
11284,1
11285,1
11286,0
11287,1
11288,1
11289,1
11290,1
11291,0
11292,0
11293,0
11294,1
11295,0
11296,1
11297,1
11298,0
11299,1
11300,1
11301,0
11302,0
11303,1
11304,0
11305,1
11306,1
11307,1
11308,1
11309,1
11310,1
11311,0
11312,1
11313,0
11314,1
11315,1
11316,0
11317,0
11318,0
11319,1
11320,0
11321,0
11322,1
11323,0
11324,0
11325,0
11326,1
11327,0
11328,0
11329,1
11330,0
11331,1
11332,1
11333,1
11334,1
11335,1
11336,0
11337,0
11338,1
11339,1
11340,0
11341,1
11342,0
11343,1
11344,1
11345,0
11346,1
11347,1
11348,0
11349,0
11350,0
11351,0
11352,0
11353,1
11354,0
11355,1
11356,1
11357,0
11358,1
11359,0
11360,0
11361,0
11362,0
11363,1
11364,0
11365,0
11366,1
11367,1
11368,1
11369,0
11370,1
11371,1
11372,0
11373,1
11374,0
11375,0
11376,0
11377,1
11378,1
11379,0
11380,0
11381,0
11382,1
11383,1
11384,0
11385,0
11386,0
11387,1
11388,0
11389,1
11390,0
11391,0
11392,1
11393,1
11394,0
11395,1
11396,0
11397,0
11398,1
11399,0
11400,0
11401,0
11402,0
11403,1
11404,0
11405,1
11406,1
11407,0
11408,0
11409,0
11410,0
11411,0
11412,0
11413,1
11414,0
11415,0
11416,1
11417,1
11418,0
11419,1
11420,1
11421,0
11422,0
11423,1
11424,1
11425,1
11426,1
11427,1
11428,1
11429,1
11430,1
11431,0
11432,0
11433,0
11434,0
11435,1
11436,0
11437,1
11438,1
11439,1
11440,0
11441,1
11442,1
11443,1
11444,0
11445,1
11446,0
11447,0
11448,1
11449,0
11450,1
11451,0
11452,1
11453,1
11454,1
11455,1
11456,1
11457,1
11458,0
11459,1
11460,0
11461,1
11462,0
11463,0
11464,1
11465,0
11466,0
11467,0
11468,0
11469,1
11470,1
11471,0
11472,1
11473,0
11474,1
11475,1
11476,0
11477,0
11478,0
11479,0
11480,1
11481,0
11482,1
11483,1
11484,1
11485,0
11486,0
11487,1
11488,1
11489,0
11490,1
11491,0
11492,0
11493,1
11494,0
11495,0
11496,1
11497,0
11498,0
11499,1
11500,0
11501,0
11502,1
11503,0
11504,0
11505,1
11506,0
11507,0
11508,1
11509,0
11510,0
11511,0
11512,1
11513,1
11514,1
11515,1
11516,1
11517,1
11518,1
11519,1
11520,0
11521,0
11522,1
11523,0
11524,0
11525,1
11526,1
11527,1
11528,0
11529,1
11530,1
11531,0
11532,0
11533,1
11534,0
11535,1
11536,0
11537,1
11538,1
11539,1
11540,0
11541,1
11542,1
11543,0
11544,0
11545,0
11546,1
11547,1
11548,0
11549,0
11550,1
11551,1
11552,1
11553,1
11554,1
11555,1
11556,0
11557,1
11558,1
11559,0
11560,0
11561,0
11562,0
11563,1
11564,0
11565,0
11566,0
11567,1
11568,1
11569,0
11570,0
11571,0
11572,0
11573,1
11574,0
11575,1
11576,1
11577,1
11578,1
11579,1
11580,0
11581,0
11582,1
11583,0
11584,0
11585,0
11586,0
11587,1
11588,0
11589,1
11590,0
11591,1
11592,0
11593,0
11594,1
11595,0
11596,0
11597,0
11598,1
11599,0
11600,0
11601,1
11602,1
11603,1
11604,1
11605,0
11606,1
11607,0
11608,0
11609,0
11610,0
11611,0
11612,1
11613,0
11614,0
11615,0
11616,0
11617,1
11618,1
11619,0
11620,0
11621,1
11622,1
11623,1
11624,1
11625,1
11626,0
11627,1
11628,1
11629,0
11630,1
11631,1
11632,0
11633,0
11634,0
11635,1
11636,0
11637,0
11638,0
11639,0
11640,1
11641,0
11642,0
11643,1
11644,0
11645,1
11646,1
11647,0
11648,1
11649,0
11650,0
11651,1
11652,1
11653,0
11654,1
11655,1
11656,1
11657,0
11658,0
11659,0
11660,0
11661,1
11662,1
11663,1
11664,0
11665,1
11666,0
11667,1
11668,0
11669,1
11670,1
11671,1
11672,0
11673,1
11674,0
11675,1
11676,0
11677,0
11678,0
11679,0
11680,1
11681,1
11682,1
11683,1
11684,1
11685,0
11686,0
11687,1
11688,1
11689,0
11690,1
11691,0
11692,1
11693,1
11694,0
11695,1
11696,0
11697,1
11698,0
11699,1
11700,0
11701,0
11702,1
11703,1
11704,0
11705,1
11706,1
11707,1
11708,0
11709,1
11710,1
11711,1
11712,0
11713,1
11714,0
11715,0
11716,1
11717,0
11718,0
11719,0
11720,1
11721,0
11722,0
11723,1
11724,0
11725,0
11726,0
11727,0
11728,0
11729,1
11730,0
11731,1
11732,1
11733,1
11734,0
11735,0
11736,0
11737,1
11738,0
11739,0
11740,1
11741,0
11742,1
11743,0
11744,0
11745,0
11746,1
11747,0
11748,1
11749,1
11750,0
11751,0
11752,1
11753,0
11754,0
11755,1
11756,0
11757,0
11758,1
11759,1
11760,1
11761,1
11762,1
11763,1
11764,0
11765,1
11766,1
11767,0
11768,1
11769,0
11770,0
11771,0
11772,1
11773,1
11774,1
11775,0
11776,1
11777,0
11778,1
11779,1
11780,1
11781,1
11782,1
11783,0
11784,0
11785,1
11786,0
11787,1
11788,1
11789,0
11790,1
11791,1
11792,0
11793,0
11794,0
11795,1
11796,0
11797,0
11798,1
11799,0
11800,0
11801,0
11802,1
11803,0
11804,1
11805,0
11806,1
11807,0
11808,1
11809,1
11810,0
11811,0
11812,0
11813,0
11814,1
11815,0
11816,1
11817,0
11818,1
11819,0
11820,0
11821,1
11822,1
11823,1
11824,1
11825,1
11826,1
11827,1
11828,1
11829,1
11830,1
11831,1
11832,1
11833,1
11834,1
11835,0
11836,0
11837,0
11838,0
11839,0
11840,1
11841,1
11842,0
11843,1
11844,1
11845,0
11846,0
11847,1
11848,1
11849,1
11850,0
11851,0
11852,1
11853,0
11854,0
11855,1
11856,0
11857,0
11858,0
11859,0
11860,0
11861,1
11862,0
11863,1
11864,1
11865,1
11866,1
11867,1
11868,0
11869,0
11870,1
11871,0
11872,1
11873,0
11874,1
11875,0
11876,1
11877,1
11878,1
11879,1
11880,1
11881,1
11882,1
11883,1
11884,0
11885,0
11886,1
11887,1
11888,1
11889,1
11890,1
11891,0
11892,1
11893,0
11894,1
11895,1
11896,1
11897,1
11898,0
11899,0
11900,1
11901,0
11902,0
11903,0
11904,1
11905,0
11906,0
11907,0
11908,1
11909,0
11910,0
11911,0
11912,1
11913,0
11914,0
11915,1
11916,0
11917,0
11918,1
11919,0
11920,1
11921,1
11922,1
11923,1
11924,0
11925,0
11926,0
11927,1
11928,1
11929,1
11930,1
11931,0
11932,1
11933,0
11934,1
11935,1
11936,0
11937,1
11938,1
11939,0
11940,0
11941,0
11942,0
11943,0
11944,1
11945,1
11946,0
11947,1
11948,0
11949,0
11950,0
11951,0
11952,1
11953,1
11954,1
11955,1
11956,1
11957,1
11958,1
11959,0
11960,1
11961,1
11962,0
11963,0
11964,1
11965,1
11966,0
11967,1
11968,1
11969,1
11970,1
11971,0
11972,1
11973,1
11974,0
11975,1
11976,0
11977,0
11978,0
11979,0
11980,1
11981,0
11982,1
11983,0
11984,1
11985,1
11986,0
11987,1
11988,1
11989,0
11990,1
11991,1
11992,0
11993,1
11994,0
11995,0
11996,1
11997,1
11998,1
11999,0
12000,1
12001,1
12002,1
12003,1
12004,1
12005,1
12006,1
12007,1
12008,0
12009,1
12010,0
12011,0
12012,1
12013,1
12014,1
12015,1
12016,1
12017,0
12018,0
12019,0
12020,0
12021,1
12022,1
12023,1
12024,1
12025,1
12026,0
12027,0
12028,1
12029,0
12030,0
12031,0
12032,0
12033,1
12034,0
12035,0
12036,0
12037,0
12038,0
12039,1
12040,0
12041,0
12042,1
12043,1
12044,1
12045,0
12046,1
12047,0
12048,1
12049,0
12050,0
12051,0
12052,1
12053,0
12054,1
12055,1
12056,1
12057,1
12058,0
12059,1
12060,1
12061,1
12062,1
12063,0
12064,1
12065,1
12066,0
12067,1
12068,0
12069,0
12070,1
12071,0
12072,0
12073,0
12074,0
12075,1
12076,0
12077,0
12078,0
12079,1
12080,1
12081,1
12082,1
12083,0
12084,0
12085,1
12086,1
12087,1
12088,0
12089,1
12090,0
12091,1
12092,1
12093,0
12094,0
12095,0
12096,1
12097,1
12098,1
12099,0
12100,1
12101,1
12102,1
12103,0
12104,0
12105,1
12106,0
12107,0
12108,1
12109,1
12110,0
12111,1
12112,0
12113,1
12114,0
12115,0
12116,0
12117,1
12118,0
12119,0
12120,0
12121,0
12122,0
12123,0
12124,0
12125,1
12126,1
12127,0
12128,1
12129,0
12130,0
12131,1
12132,1
12133,0
12134,0
12135,1
12136,0
12137,1
12138,0
12139,1
12140,1
12141,0
12142,1
12143,1
12144,1
12145,1
12146,0
12147,1
12148,0
12149,1
12150,0
12151,0
12152,0
12153,0
12154,1
12155,0
12156,1
12157,1
12158,0
12159,1
12160,1
12161,1
12162,1
12163,1
12164,0
12165,0
12166,0
12167,0
12168,0
12169,1
12170,1
12171,1
12172,1
12173,1
12174,1
12175,1
12176,1
12177,1
12178,0
12179,1
12180,1
12181,1
12182,0
12183,1
12184,1
12185,0
12186,1
12187,0
12188,1
12189,1
12190,0
12191,1
12192,0
12193,1
12194,0
12195,0
12196,1
12197,1
12198,0
12199,0
12200,0
12201,1
12202,0
12203,0
12204,0
12205,0
12206,1
12207,1
12208,0
12209,0
12210,0
12211,1
12212,0
12213,0
12214,0
12215,0
12216,0
12217,0
12218,1
12219,1
12220,0
12221,0
12222,0
12223,0
12224,1
12225,0
12226,0
12227,0
12228,1
12229,1
12230,0
12231,1
12232,0
12233,0
12234,1
12235,1
12236,0
12237,1
12238,0
12239,0
12240,0
12241,1
12242,0
12243,0
12244,1
12245,0
12246,1
12247,1
12248,1
12249,1
12250,0
12251,1
12252,0
12253,0
12254,1
12255,1
12256,0
12257,1
12258,0
12259,1
12260,0
12261,1
12262,1
12263,1
12264,1
12265,0
12266,0
12267,1
12268,1
12269,1
12270,1
12271,1
12272,0
12273,1
12274,1
12275,1
12276,0
12277,1
12278,1
12279,1
12280,0
12281,0
12282,1
12283,0
12284,1
12285,1
12286,0
12287,1
12288,1
12289,0
12290,0
12291,1
12292,0
12293,0
12294,1
12295,1
12296,0
12297,0
12298,0
12299,1
12300,1
12301,0
12302,0
12303,1
12304,1
12305,0
12306,0
12307,0
12308,0
12309,1
12310,0
12311,1
12312,0
12313,1
12314,1
12315,0
12316,1
12317,1
12318,1
12319,1
12320,0
12321,0
12322,0
12323,1
12324,0
12325,0
12326,1
12327,1
12328,0
12329,0
12330,0
12331,1
12332,1
12333,0
12334,0
12335,1
12336,0
12337,0
12338,0
12339,0
12340,0
12341,0
12342,1
12343,1
12344,1
12345,1
12346,0
12347,0
12348,1
12349,1
12350,1
12351,0
12352,1
12353,1
12354,1
12355,1
12356,1
12357,1
12358,1
12359,1
12360,1
12361,1
12362,1
12363,0
12364,1
12365,1
12366,1
12367,1
12368,0
12369,1
12370,1
12371,1
12372,0
12373,1
12374,0
12375,1
12376,0
12377,1
12378,1
12379,0
12380,1
12381,1
12382,1
12383,1
12384,0
12385,0
12386,0
12387,0
12388,0
12389,0
12390,0
12391,0
12392,1
12393,1
12394,0
12395,0
12396,1
12397,0
12398,1
12399,0
12400,1
12401,1
12402,0
12403,1
12404,1
12405,1
12406,0
12407,1
12408,0
12409,1
12410,1
12411,0
12412,1
12413,1
12414,1
12415,1
12416,1
12417,0
12418,0
12419,1
12420,0
12421,0
12422,0
12423,0
12424,1
12425,1
12426,0
12427,0
12428,0
12429,0
12430,1
12431,0
12432,1
12433,1
12434,1
12435,0
12436,1
12437,0
12438,1
12439,0
12440,1
12441,1
12442,0
12443,0
12444,1
12445,0
12446,1
12447,1
12448,1
12449,0
12450,0
12451,1
12452,1
12453,1
12454,0
12455,0
12456,1
12457,1
12458,0
12459,0
12460,1
12461,0
12462,1
12463,1
12464,0
12465,1
12466,1
12467,1
12468,0
12469,0
12470,1
12471,0
12472,0
12473,1
12474,1
12475,0
12476,1
12477,1
12478,1
12479,1
12480,0
12481,0
12482,0
12483,0
12484,0
12485,1
12486,1
12487,1
12488,0
12489,0
12490,1
12491,0
12492,1
12493,0
12494,1
12495,1
12496,1
12497,0
12498,0
12499,1
12500,0
